0.438
0.428
0.428
0.434
0.426
0.416
0.432
0.414
0.418
0.412
0.404
0.398
0.39
0.39
0.388
0.396
0.4
0.406
0.4
0.4
0.404
0.408
0.404
0.404
0.404
0.402
0.39
0.384
0.388
0.382
0.384
0.396
0.39
0.396
0.4
0.404
0.406
0.402
0.414
0.42
0.418
0.418
0.422
0.43
0.43
0.43
0.43
0.43
0.42
0.41
0.41
0.414
0.418
0.416
0.416
0.414
0.42
0.422
0.428
0.434
0.432
0.432
0.43
0.43
0.436
0.434
0.436
0.432
0.434
0.436
0.44
0.442
0.444
0.444
0.444
0.438
0.442
0.44
0.432
0.42
0.424
0.418
0.42
0.422
0.408
0.406
0.404
0.406
0.404
0.406
0.41
0.412
0.412
0.42
0.416
0.41
0.41
0.416
0.418
0.42
0.416
0.414
0.416
0.414
0.414
0.412
0.414
0.416
0.418
0.416
0.414
0.414
0.414
0.412
0.408
0.416
0.414
0.408
0.408
0.414
0.412
0.412
0.41
0.408
0.406
0.402
0.406
0.408
0.408
0.412
0.414
0.408
0.408
0.408
0.406
0.406
0.404
0.406
0.406
0.41
0.412
0.414
0.42
0.42
0.418
0.416
0.418
0.42
0.422
0.424
0.424
0.422
0.424
0.428
0.428
0.434
0.43
0.428
0.422
0.428
0.428
0.428
0.43
0.428
0.428
0.428
0.426
0.424
0.428
0.434
0.436
0.434
0.432
0.43
0.428
0.424
0.424
0.418
0.424
0.418
0.42
0.42
0.422
0.42
0.422
0.42
0.422
0.422
0.424
0.428
0.424
0.424
0.426
0.424
0.418
0.42
0.422
0.424
0.424
0.426
0.424
0.428
0.43
0.432
0.434
0.432
0.436
0.432
0.428
0.428
0.428
0.43
0.428
0.43
0.434
0.436
0.436
0.432
0.434
0.436
0.432
0.432
0.428
0.428
0.428
0.432
0.432
0.434
0.434
0.43
0.436
0.434
0.434
0.434
0.428
0.422
0.422
0.422
0.424
0.422
0.43
0.432
0.432
0.432
0.432
0.438
0.436
0.434
0.436
0.434
0.436
0.434
0.436
0.436
0.434
0.434
0.44
0.436
0.438
0.44
0.44
0.44
0.442
0.446
0.442
0.444
0.444
0.448
0.448
0.452
0.452
0.45
0.452
0.456
0.458
0.468
0.468
0.468
0.468
0.474
0.478
0.482
0.482
0.48
0.482
0.482
0.482
0.478
0.476
0.478
0.48
0.48
0.474
0.478
0.48
0.482
0.482
0.482
0.486
0.488
0.482
0.476
0.474
0.472
0.47
0.47
0.472
0.468
0.466
0.464
0.464
0.464
0.464
0.46
0.458
0.46
0.46
0.462
0.462
0.462
0.466
0.46
0.46
0.46
0.462
0.462
0.462
0.464
0.464
0.468
0.468
0.464
0.462
0.458
0.46
0.462
0.464
0.458
0.456
0.458
0.46
0.464
0.466
0.464
0.466
0.47
0.47
0.466
0.468
0.47
0.468
0.466
0.46
0.456
0.456
0.456
0.45
0.45
0.45
0.454
0.456
0.458
0.456
0.458
0.464
0.464
0.47
0.47
0.47
0.47
0.468
0.468
0.466
0.47
0.47
0.472
0.476
0.476
0.476
0.474
0.48
0.482
0.48
0.482
0.48
0.478
0.478
0.478
0.48
0.484
0.482
0.486
0.48
0.48
0.48
0.482
0.482
0.484
0.482
0.48
0.48
0.482
0.482
0.484
0.482
0.48
0.48
0.48
0.482
0.484
0.484
0.486
0.486
0.486
0.486
0.486
0.486
0.488
0.494
0.492
0.494
0.496
0.496
0.496
0.496
0.498
0.498
0.502
0.502
0.502
0.502
0.502
0.498
0.496
0.494
0.496
0.496
0.496
0.492
0.496
0.496
0.498
0.494
0.494
0.496
0.498
0.498
0.496
0.496
0.494
0.498
0.498
0.496
0.494
0.496
0.496
0.496
0.498
0.496
0.494
0.498
0.496
0.498
0.498
0.496
0.496
0.496
0.502
0.504
0.508
0.508
0.508
0.512
0.51
0.514
0.512
0.506
0.508
0.51
0.512
0.514
0.51
0.512
0.512
0.514
0.516
0.512
0.51
0.514
0.518
0.518
0.516
0.516
0.518
0.516
0.518
0.516
0.516
0.516
0.518
0.52
0.518
0.518
0.514
0.514
0.52
0.52
0.522
0.518
0.52
0.52
0.522
0.52
0.52
0.522
0.518
0.52
0.52
0.52
0.52
0.518
0.518
0.518
0.522
0.522
0.526
0.526
0.524
0.522
0.52
0.518
0.518
0.516
0.516
0.516
0.516
0.516
0.516
0.52
0.518
0.52
0.518
0.518
0.518
0.518
0.52
0.52
0.52
0.522
0.52
0.522
0.524
0.52
0.52
0.52
0.52
0.52
0.522
0.522
0.522
0.526
0.528
0.528
0.526
0.524
0.526
0.526
0.52
0.52
0.52
0.52
0.52
0.52
0.52
0.52
0.52
0.52
0.518
0.52
0.522
0.524
0.524
0.522
0.522
0.522
0.524
0.522
0.522
0.52
0.518
0.524
0.526
0.528
0.528
0.526
0.526
0.528
0.528
0.53
0.532
0.532
0.532
0.536
0.536
0.536
0.536
0.534
0.538
0.542
0.546
0.546
0.544
0.544
0.546
0.546
0.546
0.548
0.548
0.55
0.552
0.556
0.556
0.558
0.558
0.558
0.556
0.556
0.552
0.552
0.552
0.552
0.552
0.552
0.548
0.55
0.55
0.552
0.552
0.554
0.552
0.552
0.55
0.548
0.548
0.548
0.546
0.546
0.548
0.548
0.548
0.548
0.548
0.546
0.544
0.544
0.546
0.548
0.55
0.55
0.55
0.55
0.55
0.544
0.544
0.544
0.544
0.544
0.544
0.544
0.544
0.544
0.546
0.552
0.552
0.556
0.554
0.554
0.554
0.558
0.56
0.558
0.556
0.558
0.562
0.562
0.562
0.562
0.566
0.566
0.566
0.566
0.566
0.562
0.568
0.566
0.566
0.568
0.568
0.568
0.568
0.566
0.566
0.564
0.57
0.572
0.57
0.57
0.57
0.57
0.568
0.57
0.572
0.574
0.572
0.572
0.57
0.57
0.572
0.57
0.57
0.57
0.57
0.572
0.57
0.574
0.572
0.57
0.57
0.568
0.566
0.566
0.568
0.568
0.566
0.566
0.57
0.572
0.576
0.578
0.578
0.578
0.574
0.572
0.568
0.57
0.568
0.568
0.572
0.57
0.57
0.574
0.57
0.572
0.572
0.572
0.572
0.576
0.576
0.576
0.578
0.578
0.58
0.578
0.578
0.578
0.58
0.58
0.576
0.58
0.58
0.58
0.58
0.58
0.578
0.576
0.58
0.586
0.584
0.584
0.588
0.588
0.59
0.59
0.588
0.588
0.588
0.588
0.588
0.592
0.594
0.598
0.598
0.6
0.598
0.596
0.596
0.596
0.596
0.596
0.598
0.598
0.598
0.594
0.594
0.596
0.598
0.598
0.602
0.6
0.6
0.598
0.6
0.598
0.598
0.598
0.598
0.596
0.594
0.596
0.596
0.596
0.594
0.594
0.594
0.594
0.594
0.596
0.596
0.596
0.596
0.598
0.598
0.598
0.598
0.596
0.598
0.598
0.598
0.6
0.6
0.602
0.604
0.602
0.602
0.602
0.604
0.6
0.6
0.6
0.6
0.6
0.6
0.6
0.6
0.602
0.602
0.602
0.604
0.604
0.604
0.606
0.606
0.608
0.608
0.606
0.604
0.602
0.604
0.604
0.604
0.606
0.606
0.608
0.608
0.606
0.606
0.606
0.606
0.606
0.604
0.604
0.604
0.602
0.604
0.606
0.602
0.602
0.604
0.604
0.604
0.602
0.6
0.598
0.596
0.598
0.598
0.598
0.596
0.6
0.6
0.6
0.6
0.6
0.6
0.6
0.602
0.602
0.602
0.602
0.6
0.602
0.6
0.602
0.602
0.602
0.6
0.598
0.598
0.598
0.6
0.6
0.6
0.6
0.598
0.598
0.6
0.602
0.602
0.602
0.602
0.602
0.604
0.604
0.602
0.602
0.602
0.6
0.6
0.596
0.596
0.596
0.598
0.602
0.6
0.6
0.598
0.598
0.598
0.598
0.598
0.6
0.6
0.604
0.606
0.606
0.608
0.606
0.608
0.606
0.606
0.608
0.608
0.612
0.612
0.612
0.612
0.612
0.612
0.612
0.612
0.612
0.62
0.62
0.622
0.622
0.626
0.628
0.628
0.628
0.626
0.626
0.628
0.628
0.628
0.63
0.63
0.63
0.63
0.628
0.628
0.628
0.628
0.622
0.624
0.622
0.622
0.622
0.622
0.618
0.618
0.616
0.616
0.616
0.616
0.616
0.614
0.612
0.612
0.61
0.612
0.614
0.614
0.614
0.614
0.616
0.616
0.616
0.618
0.618
0.618
0.618
0.618
0.622
0.624
0.624
0.624
0.622
0.622
0.624
0.626
0.628
0.63
0.63
0.63
0.63
0.63
0.63
0.632
0.632
0.632
0.634
0.634
0.634
0.632
0.634
0.638
0.636
0.64
0.642
0.644
0.644
0.644
0.644
0.644
0.644
0.644
0.648
0.648
0.654
0.654
0.652
0.65
0.65
0.648
0.648
0.65
0.646
0.646
0.648
0.648
0.646
0.646
0.646
0.646
0.648
0.648
0.648
0.648
0.646
0.646
0.648
0.648
0.652
0.652
0.652
0.654
0.656
0.656
0.662
0.662
0.666
0.666
0.666
0.666
0.666
0.674
0.676
0.674
0.674
0.674
0.676
0.678
0.676
0.676
0.676
0.676
0.676
0.678
0.672
0.672
0.674
0.674
0.672
0.67
0.67
0.668
0.668
0.668
0.668
0.67
0.67
0.67
0.67
0.67
0.67
0.67
0.672
0.672
0.67
0.674
0.674
0.672
0.672
0.672
0.674
0.674
0.676
0.676
0.676
0.674
0.674
0.674
0.674
0.674
0.672
0.676
0.676
0.676
0.676
0.676
0.676
0.678
0.676
0.676
0.676
0.676
0.676
0.676
0.678
0.674
0.674
0.674
0.674
0.674
0.674
0.674
0.668
0.67
0.67
0.67
0.672
0.672
0.672
0.672
0.674
0.674
0.676
0.676
0.676
0.674
0.674
0.674
0.674
0.676
0.676
0.68
0.68
0.676
0.68
0.682
0.684
0.682
0.682
0.682
0.682
0.682
0.684
0.684
0.684
0.682
0.682
0.682
0.68
0.678
0.678
0.672
0.674
0.674
0.674
0.674
0.672
0.672
0.672
0.672
0.67
0.676
0.676
0.676
0.676
0.678
0.678
0.678
0.68
0.68
0.68
0.676
0.674
0.674
0.674
0.674
0.674
0.676
0.676
0.678
0.678
0.678
0.68
0.684
0.684
0.684
0.684
0.682
0.684
0.684
0.684
0.684
0.682
0.682
0.682
0.684
0.684
0.678
0.68
0.678
0.68
0.68
0.682
0.682
0.684
0.684
0.686
0.684
0.684
0.684
0.684
0.684
0.684
0.686
0.686
0.686
0.686
0.686
0.686
0.684
0.684
0.688
0.69
0.692
0.69
0.69
0.69
0.69
0.692
0.692
0.692
0.692
0.69
0.69
0.69
0.69
0.692
0.692
0.692
0.692
0.692
0.694
0.692
0.692
0.692
0.692
0.692
0.692
0.688
0.686
0.686
0.686
0.69
0.692
0.688
0.688
0.692
0.692
0.692
0.692
0.692
0.694
0.694
0.694
0.696
0.696
0.694
0.694
0.694
0.694
0.694
0.696
0.696
0.696
0.696
0.696
0.696
0.696
0.694
0.696
0.696
0.696
0.698
0.698
0.696
0.698
0.696
0.692
0.692
0.692
0.692
0.692
0.692
0.692
0.692
0.692
0.692
0.694
0.694
0.694
0.696
0.696
0.696
0.696
0.696
0.696
0.696
0.696
0.696
0.694
0.694
0.694
0.694
0.694
0.694
0.696
0.696
0.698
0.698
0.698
0.698
0.698
0.698
0.696
0.696
0.696
0.696
0.696
0.696
0.698
0.698
0.698
0.698
0.698
0.698
0.7
0.7
0.7
0.7
0.704
0.702
0.702
0.7
0.7
0.7
0.7
0.7
0.7
0.7
0.7
0.702
0.704
0.704
0.704
0.704
0.7
0.698
0.698
0.694
0.696
0.696
0.696
0.7
0.7
0.7
0.702
0.702
0.7
0.7
0.702
0.702
0.704
0.704
0.704
0.706
0.704
0.706
0.704
0.704
0.706
0.71
0.71
0.71
0.71
0.712
0.712
0.712
0.712
0.712
0.71
0.71
0.71
0.712
0.712
0.714
0.716
0.716
0.718
0.718
0.716
0.716
0.718
0.722
0.722
0.72
0.72
0.72
0.726
0.726
0.726
0.726
0.722
0.722
0.722
0.72
0.72
0.716
0.718
0.718
0.718
0.718
0.718
0.718
0.718
0.718
0.718
0.718
0.718
0.716
0.716
0.72
0.72
0.72
0.72
0.724
0.724
0.726
0.726
0.724
0.724
0.724
0.724
0.724
0.722
0.718
0.72
0.722
0.722
0.722
0.724
0.724
0.724
0.726
0.728
0.728
0.73
0.732
0.73
0.73
0.732
0.732
0.734
0.734
0.738
0.74
0.738
0.74
0.74
0.74
0.74
0.738
0.736
0.736
0.738
0.738
0.74
0.74
0.74
0.74
0.74
0.74
0.74
0.738
0.736
0.736
0.736
0.736
0.736
0.736
0.736
0.736
0.738
0.738
0.738
0.738
0.738
0.738
0.738
0.74
0.74
0.74
0.74
0.74
0.74
0.74
0.74
0.74
0.74
0.74
0.744
0.746
0.746
0.746
0.746
0.746
0.746
0.746
0.748
0.75
0.748
0.748
0.748
0.746
0.746
0.746
0.746
0.75
0.75
0.75
0.752
0.752
0.75
0.75
0.748
0.748
0.748
0.748
0.748
0.748
0.75
0.75
0.75
0.75
0.748
0.748
0.746
0.746
0.746
0.746
0.746
0.746
0.746
0.746
0.746
0.746
0.746
0.744
0.744
0.744
0.744
0.742
0.744
0.742
0.742
0.742
0.742
0.74
0.74
0.738
0.738
0.738
0.734
0.734
0.734
0.734
0.734
0.736
0.736
0.736
0.734
0.734
0.734
0.734
0.734
0.736
0.736
0.736
0.736
0.736
0.736
0.736
0.736
0.734
0.732
0.732
0.732
0.732
0.736
0.736
0.738
0.738
0.736
0.736
0.736
0.74
0.74
0.74
0.742
0.74
0.742
0.742
0.74
0.74
0.74
0.74
0.74
0.74
0.74
0.74
0.74
0.74
0.74
0.74
0.74
0.74
0.74
0.742
0.74
0.74
0.738
0.738
0.736
0.736
0.736
0.736
0.738
0.738
0.736
0.736
0.738
0.738
0.738
0.738
0.738
0.738
0.738
0.736
0.736
0.736
0.736
0.736
0.736
0.736
0.736
0.736
0.742
0.742
0.74
0.744
0.746
0.746
0.746
0.746
0.744
0.744
0.746
0.746
0.746
0.746
0.746
0.746
0.746
0.746
0.744
0.744
0.744
0.744
0.744
0.744
0.744
0.744
0.744
0.744
0.744
0.744
0.744
0.744
0.744
0.742
0.742
0.744
0.744
0.742
0.742
0.742
0.742
0.744
0.742
0.742
0.742
0.744
0.744
0.744
0.742
0.742
0.742
0.742
0.744
0.744
0.744
0.744
0.744
0.744
0.744
0.744
0.744
0.744
0.744
0.744
0.742
0.744
0.742
0.744
0.744
0.744
0.744
0.744
0.744
0.744
0.746
0.746
0.746
0.748
0.748
0.748
0.748
0.748
0.75
0.752
0.752
0.752
0.752
0.752
0.752
0.752
0.752
0.752
0.754
0.754
0.754
0.758
0.758
0.758
0.76
0.76
0.76
0.76
0.76
0.76
0.756
0.756
0.756
0.754
0.754
0.754
0.754
0.756
0.756
0.758
0.762
0.764
0.762
0.76
0.76
0.76
0.76
0.76
0.76
0.76
0.76
0.762
0.762
0.76
0.76
0.76
0.762
0.762
0.762
0.762
0.762
0.762
0.762
0.762
0.762
0.762
0.766
0.766
0.766
0.766
0.768
0.768
0.768
0.766
0.766
0.766
0.766
0.768
0.766
0.766
0.766
0.766
0.766
0.764
0.768
0.768
0.768
0.768
0.768
0.77
0.768
0.768
0.768
0.768
0.768
0.768
0.768
0.77
0.77
0.77
0.77
0.772
0.772
0.772
0.768
0.762
0.762
0.762
0.762
0.762
0.762
0.764
0.762
0.762
0.764
0.766
0.766
0.766
0.768
0.768
0.768
0.764
0.762
0.762
0.762
0.762
0.762
0.762
0.762
0.764
0.764
0.766
0.766
0.766
0.766
0.766
0.766
0.766
0.766
0.766
0.764
0.764
0.766
0.766
0.766
0.766
0.766
0.768
0.768
0.768
0.768
0.772
0.772
0.772
0.772
0.774
0.774
0.776
0.772
0.77
0.77
0.768
0.768
0.77
0.77
0.77
0.77
0.77
0.77
0.768
0.768
0.768
0.768
0.768
0.77
0.77
0.77
0.77
0.77
0.77
0.768
0.768
0.768
0.768
0.768
0.768
0.77
0.774
0.774
0.774
0.774
0.774
0.774
0.774
0.774
0.772
0.772
0.774
0.774
0.774
0.774
0.774
0.778
0.778
0.778
0.778
0.776
0.776
0.776
0.776
0.776
0.776
0.776
0.778
0.778
0.778
0.778
0.78
0.78
0.78
0.78
0.78
0.78
0.784
0.784
0.782
0.784
0.784
0.786
0.786
0.786
0.782
0.782
0.782
0.782
0.782
0.78
0.78
0.78
0.78
0.78
0.78
0.78
0.78
0.78
0.78
0.78
0.78
0.78
0.78
0.78
0.78
0.78
0.78
0.78
0.778
0.778
0.778
0.776
0.776
0.778
0.776
0.776
0.776
0.776
0.778
0.778
0.776
0.776
0.774
0.776
0.774
0.774
0.774
0.774
0.774
0.774
0.778
0.778
0.776
0.774
0.774
0.774
0.774
0.776
0.778
0.778
0.778
0.778
0.778
0.778
0.778
0.778
0.776
0.776
0.776
0.776
0.776
0.776
0.776
0.776
0.776
0.776
0.776
0.776
0.778
0.774
0.774
0.774
0.778
0.778
0.776
0.778
0.778
0.778
0.778
0.778
0.778
0.776
0.776
0.776
0.776
0.776
0.778
0.78
0.778
0.778
0.778
0.78
0.78
0.778
0.78
0.78
0.78
0.78
0.782
0.782
0.782
0.78
0.78
0.78
0.782
0.782
0.782
0.782
0.782
0.782
0.782
0.78
0.78
0.78
0.782
0.782
0.782
0.784
0.784
0.784
0.784
0.786
0.786
0.784
0.784
0.784
0.784
0.784
0.782
0.782
0.78
0.78
0.78
0.78
0.784
0.784
0.786
0.786
0.786
0.786
0.786
0.786
0.79
0.792
0.792
0.794
0.794
0.792
0.792
0.792
0.792
0.792
0.792
0.792
0.792
0.792
0.792
0.788
0.788
0.788
0.788
0.792
0.792
0.792
0.792
0.792
0.79
0.79
0.79
0.79
0.79
0.79
0.79
0.79
0.79
0.788
0.788
0.788
0.788
0.788
0.792
0.792
0.792
0.792
0.792
0.792
0.792
0.792
0.792
0.792
0.792
0.792
0.792
0.792
0.792
0.792
0.79
0.79
0.792
0.792
0.792
0.792
0.792
0.792
0.792
0.792
0.792
0.792
0.794
0.794
0.794
0.798
0.798
0.798
0.8
0.804
0.804
0.804
0.804
0.802
0.802
0.8
0.8
0.8
0.796
0.792
0.794
0.794
0.794
0.794
0.792
0.792
0.79
0.79
0.79
0.792
0.792
0.794
0.796
0.798
0.8
0.8
0.8
0.8
0.8
0.798
0.796
0.796
0.794
0.794
0.794
0.79
0.79
0.79
0.79
0.79
0.79
0.79
0.788
0.788
0.788
0.788
0.79
0.792
0.792
0.79
0.79
0.79
0.79
0.79
0.79
0.79
0.792
0.794
0.794
0.794
0.794
0.794
0.792
0.794
0.796
0.798
0.798
0.796
0.796
0.796
0.796
0.796
0.796
0.796
0.798
0.8
0.8
0.8
0.798
0.798
0.798
0.798
0.798
0.798
0.798
0.798
0.798
0.798
0.798
0.798
0.798
0.798
0.8
0.8
0.8
0.8
0.8
0.798
0.798
0.798
0.798
0.794
0.796
0.796
0.796
0.798
0.796
0.798
0.798
0.798
0.798
0.796
0.794
0.794
0.794
0.794
0.794
0.794
0.792
0.792
0.794
0.794
0.796
0.796
0.796
0.796
0.798
0.8
0.8
0.8
0.8
0.802
0.8
0.8
0.8
0.8
0.8
0.8
0.8
0.798
0.8
0.8
0.8
0.8
0.8
0.802
0.802
0.804
0.804
0.804
0.806
0.804
0.802
0.804
0.804
0.806
0.806
0.806
0.8
0.8
0.8
0.8
0.8
0.8
0.8
0.8
0.8
0.798
0.796
0.796
0.798
0.798
0.798
0.798
0.798
0.798
0.798
0.798
0.798
0.796
0.796
0.794
0.794
0.794
0.792
0.792
0.792
0.792
0.792
0.792
0.792
0.79
0.79
0.79
0.79
0.79
0.79
0.79
0.79
0.788
0.786
0.79
0.79
0.79
0.79
0.792
0.792
0.792
0.788
0.788
0.788
0.788
0.79
0.79
0.788
0.788
0.788
0.788
0.788
0.788
0.788
0.788
0.788
0.786
0.78
0.78
0.78
0.78
0.78
0.782
0.782
0.782
0.782
0.782
0.782
0.782
0.782
0.784
0.784
0.784
0.786
0.786
0.788
0.788
0.788
0.788
0.79
0.79
0.79
0.792
0.792
0.792
0.792
0.792
0.792
0.792
0.792
0.79
0.79
0.794
0.794
0.794
0.794
0.794
0.794
0.794
0.794
0.794
0.794
0.794
0.794
0.794
0.794
0.798
0.798
0.798
0.798
0.798
0.798
0.8
0.8
0.8
0.798
0.8
0.8
0.8
0.8
0.8
0.8
0.8
0.8
0.798
0.798
0.798
0.798
0.798
0.798
0.798
0.798
0.798
0.798
0.798
0.798
0.798
0.798
0.798
0.798
0.798
0.796
0.796
0.796
0.796
0.796
0.796
0.796
0.798
0.798
0.796
0.796
0.796
0.796
0.796
0.796
0.796
0.798
0.796
0.798
0.798
0.796
0.796
0.796
0.796
0.798
0.798
0.8
0.8
0.8
0.8
0.8
0.8
0.8
0.8
0.802
0.802
0.802
0.802
0.802
0.802
0.8
0.802
0.802
0.802
0.804
0.804
0.804
0.804
0.804
0.804
0.804
0.804
0.806
0.808
0.808
0.808
0.81
0.81
0.81
0.81
0.81
0.808
0.808
0.808
0.808
0.808
0.808
0.806
0.802
0.802
0.802
0.802
0.802
0.802
0.802
0.802
0.8
0.8
0.8
0.8
0.8
0.8
0.796
0.796
0.796
0.796
0.796
0.796
0.798
0.798
0.798
0.798
0.798
0.798
0.798
0.798
0.798
0.798
0.796
0.794
0.794
0.794
0.794
0.796
0.798
0.798
0.798
0.798
0.798
0.798
0.796
0.794
0.794
0.794
0.794
0.794
0.792
0.792
0.792
0.792
0.792
0.792
0.792
0.792
0.794
0.796
0.796
0.796
0.8
0.8
0.8
0.8
0.8
0.802
0.802
0.802
0.804
0.802
0.802
0.802
0.802
0.802
0.798
0.798
0.798
0.798
0.798
0.798
0.798
0.798
0.798
0.798
0.798
0.798
0.798
0.798
0.796
0.796
0.796
0.796
0.796
0.796
0.796
0.796
0.796
0.796
0.794
0.794
0.792
0.792
0.79
0.79
0.79
0.79
0.792
0.79
0.792
0.794
0.794
0.794
0.794
0.794
0.794
0.794
0.794
0.796
0.796
0.796
0.796
0.796
0.796
0.796
0.796
0.796
0.794
0.794
0.792
0.792
0.792
0.794
0.794
0.794
0.796
0.798
0.798
0.798
0.798
0.798
0.798
0.798
0.798
0.798
0.798
0.798
0.798
0.798
0.8
0.8
0.8
0.8
0.8
0.8
0.798
0.798
0.796
0.794
0.796
0.796
0.796
0.796
0.796
0.796
0.798
0.798
0.8
0.8
0.8
0.8
0.798
0.798
0.798
0.798
0.798
0.798
0.8
0.8
0.8
0.8
0.8
0.8
0.8
0.8
0.8
0.8
0.8
0.8
0.8
0.802
0.802
0.802
0.802
0.802
0.804
0.802
0.802
0.802
0.802
0.804
0.804
0.804
0.804
0.804
0.804
0.804
0.806
0.806
0.806
0.806
0.806
0.806
0.806
0.806
0.808
0.808
0.808
0.808
0.806
0.806
0.806
0.806
0.806
0.806
0.806
0.806
0.802
0.802
0.802
0.802
0.8
0.8
0.804
0.804
0.804
0.804
0.804
0.804
0.804
0.804
0.806
0.806
0.806
0.806
0.806
0.806
0.806
0.806
0.808
0.806
0.804
0.804
0.806
0.806
0.806
0.806
0.806
0.804
0.804
0.804
0.804
0.804
0.804
0.804
0.804
0.804
0.804
0.802
0.802
0.802
0.8
0.8
0.8
0.8
0.802
0.802
0.802
0.802
0.802
0.804
0.802
0.802
0.802
0.802
0.804
0.804
0.802
0.802
0.802
0.802
0.802
0.802
0.804
0.804
0.804
0.804
0.806
0.806
0.806
0.804
0.804
0.804
0.802
0.802
0.8
0.8
0.8
0.8
0.8
0.8
0.8
0.8
0.8
0.8
0.802
0.804
0.806
0.808
0.808
0.808
0.808
0.808
0.81
0.81
0.81
0.81
0.81
0.81
0.81
0.81
0.81
0.81
0.81
0.81
0.812
0.812
0.812
0.812
0.812
0.812
0.81
0.81
0.81
0.81
0.812
0.812
0.812
0.812
0.812
0.812
0.812
0.812
0.812
0.812
0.812
0.812
0.812
0.812
0.812
0.812
0.812
0.812
0.812
0.812
0.812
0.812
0.812
0.812
0.812
0.816
0.816
0.816
0.816
0.816
0.818
0.82
0.82
0.822
0.824
0.824
0.824
0.824
0.824
0.824
0.824
0.824
0.824
0.826
0.828
0.828
0.828
0.828
0.828
0.828
0.828
0.828
0.826
0.826
0.826
0.826
0.828
0.83
0.83
0.83
0.83
0.83
0.83
0.83
0.83
0.83
0.83
0.83
0.83
0.83
0.83
0.832
0.832
0.832
0.832
0.832
0.834
0.834
0.834
0.834
0.834
0.832
0.834
0.834
0.834
0.836
0.836
0.836
0.836
0.836
0.836
0.836
0.836
0.836
0.836
0.836
0.836
0.836
0.836
0.836
0.836
0.836
0.838
0.838
0.838
0.838
0.84
0.84
0.84
0.84
0.84
0.84
0.84
0.84
0.84
0.84
0.84
0.84
0.84
0.84
0.84
0.84
0.838
0.838
0.838
0.838
0.838
0.838
0.838
0.838
0.838
0.838
0.84
0.84
0.84
0.84
0.84
0.84
0.84
0.84
0.84
0.84
0.84
0.84
0.84
0.84
0.84
0.838
0.84
0.842
0.842
0.842
0.84
0.84
0.84
0.84
0.838
0.838
0.838
0.838
0.838
0.836
0.836
0.836
0.836
0.836
0.836
0.834
0.834
0.836
0.836
0.836
0.836
0.836
0.836
0.836
0.836
0.836
0.836
0.836
0.836
0.836
0.836
0.836
0.836
0.836
0.836
0.836
0.836
0.838
0.838
0.84
0.84
0.84
0.842
0.842
0.842
0.842
0.842
0.842
0.842
0.842
0.842
0.842
0.842
0.842
0.842
0.842
0.84
0.838
0.838
0.838
0.838
0.838
0.838
0.838
0.838
0.838
0.838
0.84
0.84
0.84
0.84
0.838
0.84
0.84
0.84
0.84
0.842
0.844
0.844
0.844
0.844
0.844
0.844
0.844
0.844
0.844
0.844
0.844
0.844
0.844
0.844
0.844
0.844
0.844
0.844
0.842
0.842
0.842
0.842
0.842
0.842
0.842
0.842
0.842
0.842
0.842
0.842
0.842
0.842
0.842
0.842
0.842
0.842
0.842
0.842
0.842
0.842
0.844
0.846
0.846
0.846
0.848
0.848
0.848
0.846
0.846
0.846
0.846
0.846
0.846
0.846
0.846
0.846
0.846
0.846
0.846
0.846
0.846
0.846
0.846
0.846
0.846
0.846
0.846
0.846
0.848
0.848
0.848
0.848
0.848
0.848
0.848
0.848
0.848
0.848
0.846
0.846
0.846
0.846
0.85
0.85
0.85
0.85
0.848
0.848
0.848
0.848
0.848
0.848
0.848
0.848
0.846
0.846
0.846
0.846
0.846
0.846
0.846
0.846
0.846
0.848
0.848
0.848
0.848
0.85
0.85
0.85
0.85
0.85
0.85
0.85
0.85
0.85
0.852
0.854
0.854
0.854
0.854
0.854
0.854
0.854
0.854
0.854
0.852
0.852
0.852
0.85
0.85
0.85
0.852
0.852
0.852
0.852
0.852
0.852
0.852
0.852
0.852
0.852
0.852
0.852
0.852
0.854
0.854
0.854
0.854
0.854
0.854
0.854
0.854
0.854
0.854
0.854
0.854
0.854
0.854
0.854
0.854
0.854
0.854
0.854
0.856
0.856
0.856
0.856
0.856
0.856
0.856
0.856
0.856
0.856
0.856
0.858
0.858
0.858
0.858
0.858
0.858
0.858
0.858
0.858
0.858
0.858
0.858
0.858
0.858
0.858
0.858
0.858
0.858
0.858
0.858
0.856
0.856
0.856
0.856
0.858
0.858
0.858
0.858
0.858
0.858
0.858
0.858
0.858
0.858
0.858
0.858
0.858
0.858
0.858
0.858
0.858
0.858
0.858
0.856
0.856
0.856
0.856
0.856
0.856
0.856
0.856
0.856
0.854
0.856
0.856
0.856
0.856
0.856
0.856
0.856
0.856
0.856
0.856
0.856
0.856
0.856
0.856
0.858
0.858
0.86
0.862
0.862
0.862
0.862
0.862
0.862
0.862
0.862
0.862
0.86
0.858
0.858
0.858
0.858
0.858
0.858
0.858
0.858
0.858
0.858
0.858
0.858
0.86
0.86
0.862
0.862
0.862
0.862
0.862
0.862
0.862
0.86
0.86
0.86
0.86
0.862
0.862
0.864
0.864
0.864
0.864
0.864
0.864
0.864
0.864
0.864
0.864
0.864
0.864
0.864
0.864
0.864
0.864
0.864
0.864
0.864
0.864
0.864
0.864
0.864
0.864
0.864
0.864
0.866
0.866
0.866
0.866
0.866
0.866
0.866
0.866
0.868
0.868
0.868
0.868
0.868
0.868
0.87
0.87
0.872
0.872
0.872
0.872
0.868
0.868
0.868
0.868
0.868
0.87
0.87
0.87
0.87
0.87
0.87
0.872
0.872
0.872
0.872
0.872
0.872
0.87
0.87
0.868
0.868
0.868
0.868
0.868
0.87
0.872
0.872
0.872
0.872
0.872
0.872
0.872
0.872
0.872
0.872
0.872
0.872
0.872
0.872
0.872
0.872
0.872
0.872
0.872
0.872
0.872
0.872
0.872
0.872
0.872
0.872
0.872
0.872
0.872
0.872
0.872
0.872
0.872
0.872
0.872
0.872
0.872
0.874
0.874
0.874
0.874
0.874
0.874
0.874
0.874
0.874
0.874
0.874
0.874
0.874
0.874
0.874
0.874
0.874
0.874
0.874
0.874
0.874
0.872
0.872
0.872
0.872
0.872
0.872
0.872
0.872
0.872
0.872
0.872
0.872
0.872
0.872
0.872
0.872
0.874
0.872
0.87
0.87
0.872
0.872
0.872
0.872
0.872
0.872
0.872
0.872
0.872
0.874
0.874
0.874
0.874
0.874
0.876
0.876
0.876
0.876
0.876
0.876
0.876
0.876
0.876
0.876
0.876
0.876
0.876
0.876
0.876
0.876
0.876
0.876
0.876
0.876
0.876
0.874
0.874
0.874
0.872
0.872
0.872
0.872
0.872
0.872
0.872
0.872
0.872
0.872
0.874
0.874
0.874
0.874
0.874
0.874
0.874
0.874
0.872
0.872
0.874
0.874
0.874
0.874
0.874
0.874
0.876
0.876
0.876
0.876
0.876
0.876
0.876
0.876
0.876
0.876
0.876
0.876
0.876
0.876
0.876
0.876
0.876
0.876
0.874
0.874
0.874
0.874
0.874
0.874
0.874
0.874
0.874
0.874
0.874
0.874
0.874
0.874
0.874
0.874
0.874
0.874
0.874
0.874
0.874
0.874
0.872
0.872
0.872
0.872
0.872
0.872
0.872
0.872
0.872
0.87
0.87
0.87
0.87
0.87
0.87
0.87
0.87
0.87
0.87
0.87
0.866
0.866
0.866
0.866
0.868
0.868
0.868
0.868
0.868
0.868
0.868
0.868
0.868
0.87
0.87
0.87
0.87
0.87
0.87
0.87
0.87
0.87
0.87
0.87
0.874
0.874
0.874
0.874
0.874
0.874
0.872
0.872
0.872
0.872
0.872
0.874
0.874
0.876
0.876
0.876
0.876
0.876
0.876
0.876
0.876
0.874
0.874
0.874
0.874
0.874
0.874
0.874
0.874
0.874
0.874
0.874
0.874
0.874
0.874
0.874
0.874
0.874
0.874
0.874
0.874
0.874
0.874
0.874
0.874
0.874
0.874
0.874
0.872
0.872
0.872
0.872
0.872
0.872
0.87
0.87
0.87
0.87
0.87
0.87
0.87
0.87
0.87
0.87
0.87
0.87
0.87
0.87
0.87
0.87
0.87
0.87
0.87
0.872
0.872
0.874
0.872
0.872
0.872
0.872
0.872
0.872
0.872
0.87
0.87
0.872
0.872
0.872
0.872
0.872
0.872
0.872
0.872
0.872
0.872
0.874
0.874
0.874
0.874
0.874
0.874
0.874
0.874
0.874
0.874
0.874
0.874
0.874
0.876
0.876
0.876
0.876
0.876
0.876
0.876
0.876
0.876
0.876
0.876
0.876
0.876
0.876
0.876
0.876
0.876
0.876
0.876
0.876
0.878
0.878
0.878
0.878
0.878
0.878
0.878
0.878
0.878
0.878
0.876
0.876
0.876
0.876
0.876
0.876
0.876
0.876
0.876
0.876
0.876
0.876
0.876
0.876
0.876
0.876
0.876
0.876
0.876
0.876
0.876
0.876
0.876
0.876
0.878
0.878
0.878
0.878
0.878
0.878
0.878
0.878
0.878
0.878
0.878
0.878
0.878
0.878
0.878
0.878
0.878
0.878
0.878
0.878
0.878
0.878
0.878
0.878
0.878
0.878
0.878
0.878
0.878
0.878
0.878
0.878
0.878
0.878
0.878
0.878
0.878
0.878
0.878
0.878
0.878
0.878
0.878
0.878
0.878
0.876
0.876
0.876
0.876
0.876
0.876
0.876
0.876
0.876
0.876
0.876
0.876
0.876
0.876
0.878
0.878
0.878
0.878
0.878
0.876
0.876
0.876
0.876
0.876
0.876
0.87
0.868
0.87
0.87
0.87
0.87
0.87
0.87
0.87
0.87
0.87
0.87
0.87
0.87
0.87
0.87
0.87
0.87
0.87
0.87
0.87
0.87
0.87
0.87
0.872
0.872
0.872
0.87
0.87
0.87
0.87
0.87
0.87
0.87
0.87
0.87
0.87
0.87
0.87
0.87
0.868
0.868
0.868
0.868
0.868
0.868
0.868
0.868
0.868
0.868
0.868
0.868
0.87
0.87
0.87
0.87
0.868
0.868
0.868
0.868
0.868
0.868
0.866
0.866
0.866
0.866
0.866
0.866
0.866
0.866
0.866
0.866
0.866
0.866
0.866
0.866
0.866
0.866
0.866
0.866
0.866
0.866
0.864
0.864
0.864
0.864
0.864
0.864
0.864
0.864
0.862
0.862
0.862
0.862
0.862
0.862
0.862
0.862
0.862
0.862
0.862
0.866
0.866
0.864
0.864
0.866
0.866
0.868
0.868
0.868
0.868
0.868
0.868
0.868
0.868
0.87
0.872
0.872
0.872
0.872
0.872
0.872
0.872
0.872
0.872
0.872
0.872
0.872
0.872
0.872
0.872
0.872
0.872
0.872
0.874
0.874
0.874
0.874
0.872
0.872
0.872
0.872
0.872
0.872
0.872
0.872
0.872
0.872
0.872
0.87
0.87
0.87
0.87
0.87
0.87
0.87
0.87
0.87
0.868
0.868
0.868
0.868
0.868
0.872
0.872
0.872
0.872
0.872
0.872
0.874
0.874
0.874
0.874
0.874
0.874
0.874
0.874
0.872
0.872
0.872
0.874
0.872
0.872
0.872
0.872
0.872
0.872
0.874
0.874
0.874
0.874
0.878
0.878
0.878
0.878
0.878
0.88
0.88
0.88
0.878
0.878
0.874
0.874
0.876
0.876
0.876
0.876
0.876
0.876
0.876
0.876
0.878
0.878
0.878
0.878
0.878
0.878
0.878
0.876
0.876
0.876
0.876
0.876
0.876
0.874
0.874
0.874
0.874
0.872
0.87
0.87
0.87
0.87
0.87
0.872
0.872
0.872
0.872
0.872
0.872
0.872
0.872
0.872
0.87
0.87
0.872
0.872
0.872
0.872
0.872
0.874
0.874
0.874
0.876
0.876
0.876
0.876
0.878
0.878
0.878
0.878
0.878
0.878
0.878
0.878
0.878
0.878
0.876
0.878
0.878
0.88
0.88
0.88
0.876
0.876
0.876
0.876
0.876
0.876
0.874
0.874
0.874
0.874
0.874
0.874
0.874
0.872
0.872
0.872
0.872
0.872
0.872
0.872
0.872
0.87
0.87
0.87
0.87
0.87
0.87
0.87
0.87
0.87
0.87
0.87
0.87
0.87
0.87
0.87
0.87
0.87
0.87
0.87
0.874
0.874
0.874
0.874
0.874
0.874
0.874
0.874
0.876
0.876
0.876
0.876
0.876
0.876
0.876
0.876
0.876
0.876
0.876
0.876
0.876
0.876
0.876
0.876
0.876
0.876
0.876
0.876
0.874
0.874
0.874
0.874
0.874
0.874
0.874
0.874
0.874
0.874
0.874
0.874
0.874
0.874
0.872
0.872
0.87
0.87
0.87
0.87
0.87
0.87
0.87
0.87
0.87
0.87
0.87
0.87
0.87
0.87
0.87
0.87
0.87
0.87
0.87
0.872
0.872
0.872
0.872
0.872
0.872
0.872
0.872
0.872
0.874
0.874
0.874
0.874
0.874
0.874
0.874
0.874
0.874
0.874
0.874
0.874
0.874
0.87
0.87
0.87
0.87
0.87
0.87
0.87
0.87
0.87
0.87
0.872
0.872
0.872
0.87
0.87
0.868
0.872
0.872
0.872
0.87
0.87
0.87
0.87
0.87
0.87
0.868
0.868
0.868
0.868
0.868
0.868
0.868
0.868
0.868
0.868
0.868
0.868
0.868
0.866
0.866
0.866
0.866
0.866
0.868
0.868
0.868
0.87
0.87
0.87
0.868
0.868
0.868
0.868
0.866
0.866
0.866
0.866
0.866
0.866
0.864
0.864
0.862
0.862
0.862
0.862
0.862
0.862
0.864
0.864
0.864
0.864
0.864
0.864
0.864
0.864
0.864
0.864
0.864
0.862
0.864
0.864
0.864
0.864
0.864
0.864
0.862
0.862
0.862
0.862
0.862
0.862
0.862
0.862
0.862
0.862
0.862
0.862
0.862
0.862
0.862
0.862
0.862
0.864
0.864
0.864
0.864
0.864
0.864
0.864
0.864
0.864
0.868
0.868
0.868
0.868
0.868
0.868
0.868
0.866
0.866
0.866
0.866
0.866
0.866
0.864
0.866
0.866
0.866
0.866
0.866
0.866
0.866
0.866
0.866
0.866
0.864
0.864
0.864
0.864
0.864
0.864
0.864
0.864
0.864
0.864
0.864
0.866
0.866
0.866
0.866
0.866
0.866
0.866
0.866
0.866
0.866
0.866
0.866
0.866
0.866
0.866
0.866
0.866
0.868
0.868
0.868
0.868
0.868
0.868
0.868
0.868
0.866
0.866
0.866
0.866
0.866
0.866
0.866
0.866
0.866
0.864
0.864
0.864
0.864
0.864
0.866
0.866
0.866
0.866
0.866
0.866
0.866
0.866
0.866
0.866
0.866
0.866
0.866
0.864
0.864
0.864
0.864
0.864
0.864
0.864
0.864
0.864
0.864
0.864
0.864
0.864
0.864
0.864
0.864
0.864
0.864
0.866
0.866
0.866
0.866
0.868
0.868
0.868
0.868
0.868
0.868
0.868
0.87
0.872
0.872
0.872
0.872
0.872
0.872
0.872
0.872
0.872
0.872
0.872
0.872
0.87
0.87
0.87
0.872
0.872
0.872
0.872
0.872
0.872
0.872
0.872
0.874
0.874
0.874
0.874
0.874
0.874
0.874
0.874
0.874
0.874
0.874
0.876
0.876
0.876
0.876
0.876
0.874
0.874
0.874
0.874
0.874
0.874
0.874
0.874
0.874
0.874
0.874
0.872
0.872
0.872
0.874
0.876
0.878
0.878
0.878
0.878
0.878
0.878
0.878
0.878
0.878
0.878
0.88
0.88
0.88
0.88
0.88
0.88
0.88
0.88
0.88
0.88
0.88
0.88
0.884
0.884
0.884
0.884
0.884
0.882
0.882
0.882
0.882
0.88
0.88
0.88
0.88
0.878
0.878
0.878
0.878
0.878
0.878
0.878
0.878
0.878
0.878
0.878
0.878
0.878
0.878
0.878
0.878
0.88
0.88
0.88
0.88
0.88
0.88
0.88
0.88
0.88
0.88
0.88
0.88
0.88
0.88
0.88
0.88
0.88
0.88
0.88
0.88
0.882
0.882
0.882
0.882
0.882
0.882
0.882
0.882
0.882
0.882
0.88
0.88
0.88
0.88
0.882
0.882
0.884
0.884
0.884
0.884
0.882
0.88
0.88
0.88
0.88
0.88
0.88
0.88
0.88
0.88
0.878
0.88
0.88
0.88
0.88
0.88
0.88
0.88
0.88
0.88
0.88
0.878
0.878
0.878
0.874
0.874
0.874
0.874
0.872
0.872
0.87
0.87
0.87
0.87
0.87
0.87
0.874
0.874
0.874
0.872
0.872
0.872
0.872
0.872
0.872
0.872
0.872
0.872
0.872
0.872
0.872
0.872
0.876
0.876
0.876
0.876
0.876
0.876
0.876
0.876
0.876
0.876
0.876
0.878
0.878
0.878
0.878
0.878
0.878
0.878
0.878
0.878
0.876
0.876
0.876
0.876
0.876
0.876
0.876
0.876
0.878
0.878
0.878
0.878
0.878
0.88
0.88
0.88
0.88
0.88
0.88
0.88
0.88
0.882
0.882
0.882
0.882
0.882
0.882
0.882
0.882
0.882
0.882
0.882
0.882
0.882
0.882
0.882
0.882
0.882
0.88
0.88
0.88
0.88
0.88
0.878
0.88
0.88
0.88
0.88
0.88
0.88
0.878
0.878
0.878
0.878
0.878
0.878
0.878
0.878
0.878
0.878
0.878
0.878
0.88
0.88
0.88
0.88
0.88
0.88
0.88
0.88
0.88
0.88
0.88
0.88
0.88
0.88
0.88
0.88
0.88
0.88
0.88
0.88
0.88
0.88
0.88
0.88
0.88
0.88
0.88
0.88
0.88
0.88
0.88
0.88
0.88
0.88
0.88
0.88
0.88
0.88
0.88
0.88
0.88
0.88
0.88
0.88
0.88
0.88
0.878
0.878
0.878
0.878
0.878
0.878
0.878
0.878
0.878
0.878
0.878
0.878
0.878
0.878
0.878
0.878
0.878
0.878
0.878
0.878
0.878
0.88
0.88
0.88
0.878
0.878
0.878
0.878
0.878
0.878
0.878
0.878
0.878
0.878
0.878
0.878
0.878
0.878
0.878
0.878
0.878
0.878
0.878
0.878
0.878
0.878
0.88
0.88
0.88
0.88
0.88
0.878
0.878
0.878
0.878
0.878
0.878
0.878
0.876
0.876
0.876
0.878
0.88
0.882
0.882
0.882
0.882
0.884
0.884
0.882
0.882
0.882
0.882
0.882
0.884
0.884
0.884
0.884
0.884
0.884
0.884
0.884
0.884
0.884
0.884
0.884
0.884
0.884
0.884
0.884
0.882
0.882
0.882
0.882
0.882
0.882
0.882
0.882
0.882
0.882
0.884
0.884
0.886
0.886
0.886
0.886
0.886
0.886
0.886
0.886
0.886
0.888
0.888
0.888
0.888
0.894
0.892
0.892
0.892
0.892
0.892
0.892
0.892
0.892
0.892
0.892
0.892
0.894
0.894
0.894
0.894
0.894
0.894
0.894
0.894
0.894
0.892
0.892
0.892
0.892
0.892
0.892
0.892
0.888
0.888
0.888
0.888
0.888
0.888
0.888
0.89
0.89
0.888
0.888
0.888
0.89
0.888
0.888
0.888
0.888
0.888
0.888
0.886
0.884
0.884
0.884
0.884
0.886
0.886
0.886
0.886
0.886
0.886
0.886
0.886
0.886
0.886
0.89
0.89
0.89
0.89
0.89
0.89
0.89
0.89
0.892
0.892
0.892
0.892
0.892
0.892
0.892
0.892
0.892
0.892
0.892
0.892
0.892
0.892
0.892
0.892
0.89
0.89
0.89
0.89
0.89
0.89
0.89
0.89
0.89
0.89
0.89
0.89
0.888
0.888
0.888
0.888
0.888
0.888
0.888
0.888
0.888
0.888
0.888
0.888
0.888
0.888
0.888
0.888
0.888
0.888
0.888
0.888
0.888
0.888
0.888
0.888
0.888
0.888
0.888
0.888
0.888
0.886
0.886
0.886
0.886
0.886
0.886
0.886
0.888
0.888
0.888
0.888
0.89
0.89
0.888
0.888
0.888
0.888
0.888
0.888
0.888
0.888
0.888
0.888
0.886
0.89
0.89
0.89
0.89
0.89
0.89
0.892
0.894
0.894
0.894
0.894
0.894
0.894
0.894
0.894
0.894
0.894
0.894
0.894
0.894
0.894
0.894
0.894
0.894
0.894
0.894
0.894
0.894
0.894
0.894
0.896
0.894
0.896
0.896
0.896
0.896
0.894
0.894
0.892
0.892
0.892
0.892
0.892
0.892
0.892
0.892
0.892
0.892
0.892
0.892
0.892
0.892
0.89
0.886
0.886
0.884
0.884
0.884
0.884
0.884
0.884
0.884
0.884
0.884
0.884
0.884
0.884
0.884
0.882
0.882
0.882
0.882
0.882
0.882
0.882
0.882
0.882
0.882
0.882
0.882
0.882
0.882
0.882
0.882
0.882
0.882
0.882
0.882
0.882
0.882
0.882
0.882
0.882
0.882
0.882
0.882
0.882
0.882
0.882
0.882
0.882
0.882
0.882
0.882
0.882
0.882
0.884
0.884
0.884
0.884
0.884
0.884
0.884
0.884
0.884
0.884
0.884
0.886
0.886
0.886
0.886
0.888
0.888
0.886
0.886
0.886
0.886
0.886
0.886
0.886
0.886
0.886
0.886
0.886
0.886
0.886
0.884
0.884
0.884
0.886
0.886
0.886
0.888
0.888
0.888
0.888
0.888
0.888
0.888
0.886
0.886
0.888
0.888
0.888
0.888
0.888
0.888
0.888
0.888
0.888
0.888
0.888
0.888
0.888
0.888
0.89
0.89
0.89
0.89
0.89
0.89
0.89
0.89
0.89
0.89
0.894
0.894
0.894
0.894
0.894
0.894
0.894
0.894
0.894
0.894
0.894
0.894
0.894
0.894
0.894
0.894
0.894
0.894
0.894
0.894
0.892
0.892
0.892
0.892
0.892
0.894
0.894
0.894
0.896
0.896
0.896
0.896
0.896
0.896
0.896
0.896
0.896
0.896
0.896
0.896
0.896
0.896
0.896
0.896
0.896
0.896
0.896
0.896
0.896
0.896
0.896
0.896
0.896
0.896
0.894
0.896
0.896
0.898
0.898
0.896
0.896
0.894
0.894
0.894
0.892
0.892
0.892
0.892
0.892
0.892
0.892
0.892
0.892
0.89
0.89
0.89
0.89
0.89
0.89
0.89
0.89
0.89
0.89
0.89
0.89
0.89
0.89
0.89
0.89
0.892
0.892
0.892
0.892
0.892
0.892
0.892
0.892
0.894
0.894
0.894
0.896
0.898
0.898
0.898
0.898
0.898
0.898
0.898
0.898
0.898
0.896
0.896
0.896
0.896
0.896
0.896
0.896
0.896
0.896
0.896
0.896
0.896
0.894
0.896
0.896
0.896
0.896
0.896
0.896
0.896
0.896
0.896
0.896
0.896
0.896
0.896
0.896
0.896
0.896
0.896
0.898
0.898
0.898
0.896
0.896
0.896
0.896
0.896
0.896
0.896
0.896
0.896
0.896
0.896
0.9
0.9
0.9
0.9
0.9
0.9
0.9
0.902
0.902
0.902
0.902
0.902
0.9
0.9
0.9
0.9
0.9
0.9
0.9
0.9
0.9
0.9
0.898
0.898
0.898
0.9
0.9
0.9
0.9
0.9
0.9
0.9
0.9
0.898
0.898
0.898
0.896
0.898
0.898
0.9
0.9
0.9
0.9
0.9
0.9
0.9
0.9
0.9
0.9
0.9
0.9
0.9
0.9
0.9
0.9
0.9
0.9
0.9
0.9
0.9
0.9
0.9
0.9
0.9
0.902
0.902
0.902
0.902
0.902
0.902
0.902
0.902
0.902
0.902
0.902
0.902
0.9
0.9
0.902
0.902
0.902
0.902
0.902
0.904
0.904
0.904
0.904
0.904
0.904
0.904
0.904
0.904
0.904
0.904
0.904
0.904
0.904
0.904
0.904
0.904
0.904
0.904
0.904
0.904
0.904
0.904
0.904
0.906
0.906
0.906
0.906
0.906
0.908
0.908
0.908
0.908
0.908
0.908
0.908
0.908
0.908
0.908
0.908
0.908
0.908
0.908
0.908
0.908
0.908
0.908
0.908
0.908
0.908
0.908
0.908
0.908
0.908
0.908
0.908
0.908
0.908
0.908
0.908
0.908
0.908
0.908
0.908
0.908
0.908
0.908
0.908
0.908
0.908
0.908
0.908
0.908
0.908
0.908
0.908
0.908
0.908
0.908
0.908
0.906
0.906
0.906
0.906
0.908
0.908
0.908
0.908
0.908
0.908
0.908
0.908
0.91
0.91
0.91
0.91
0.91
0.91
0.91
0.91
0.91
0.91
0.91
0.91
0.91
0.908
0.908
0.908
0.908
0.908
0.908
0.908
0.908
0.906
0.906
0.906
0.906
0.906
0.906
0.906
0.906
0.906
0.906
0.908
0.908
0.91
0.91
0.91
0.91
0.91
0.91
0.91
0.91
0.91
0.91
0.91
0.91
0.91
0.91
0.91
0.91
0.91
0.91
0.91
0.91
0.91
0.91
0.91
0.91
0.91
0.91
0.91
0.908
0.908
0.908
0.906
0.906
0.908
0.908
0.908
0.908
0.91
0.908
0.908
0.908
0.908
0.908
0.91
0.91
0.91
0.91
0.91
0.91
0.91
0.91
0.91
0.908
0.908
0.908
0.908
0.908
0.908
0.908
0.908
0.908
0.908
0.908
0.908
0.908
0.908
0.908
0.906
0.906
0.906
0.906
0.906
0.906
0.906
0.906
0.906
0.904
0.904
0.904
0.904
0.904
0.904
0.904
0.904
0.904
0.904
0.904
0.904
0.904
0.904
0.904
0.904
0.904
0.904
0.904
0.904
0.904
0.904
0.906
0.906
0.906
0.906
0.906
0.906
0.906
0.908
0.908
0.908
0.908
0.908
0.908
0.91
0.91
0.91
0.91
0.91
0.91
0.91
0.91
0.91
0.91
0.91
0.91
0.91
0.91
0.912
0.912
0.912
0.912
0.912
0.914
0.914
0.914
0.914
0.914
0.914
0.914
0.914
0.914
0.912
0.912
0.912
0.912
0.912
0.912
0.912
0.912
0.912
0.912
0.912
0.912
0.912
0.912
0.912
0.912
0.912
0.912
0.912
0.912
0.912
0.912
0.912
0.912
0.912
0.912
0.912
0.912
0.912
0.912
0.91
0.91
0.91
0.91
0.91
0.91
0.91
0.91
0.91
0.91
0.91
0.91
0.91
0.91
0.91
0.91
0.91
0.91
0.91
0.91
0.91
0.908
0.908
0.908
0.908
0.908
0.908
0.908
0.91
0.91
0.91
0.91
0.91
0.91
0.91
0.91
0.91
0.91
0.91
0.91
0.91
0.912
0.912
0.912
0.912
0.912
0.912
0.912
0.912
0.912
0.912
0.912
0.912
0.912
0.912
0.912
0.912
0.912
0.912
0.91
0.91
0.91
0.91
0.91
0.91
0.91
0.91
0.91
0.91
0.91
0.91
0.91
0.91
0.91
0.91
0.91
0.91
0.91
0.91
0.908
0.908
0.908
0.91
0.91
0.91
0.91
0.91
0.91
0.91
0.91
0.91
0.91
0.912
0.912
0.912
0.912
0.912
0.912
0.912
0.912
0.912
0.912
0.912
0.912
0.912
0.912
0.912
0.912
0.912
0.912
0.912
0.912
0.912
0.912
0.912
0.912
0.912
0.91
0.91
0.91
0.91
0.91
0.91
0.91
0.91
0.91
0.91
0.908
0.908
0.908
0.908
0.908
0.908
0.908
0.908
0.908
0.908
0.908
0.91
0.91
0.91
0.91
0.91
0.912
0.912
0.912
0.912
0.912
0.912
0.912
0.912
0.912
0.912
0.912
0.912
0.912
0.912
0.914
0.916
0.916
0.914
0.914
0.914
0.914
0.914
0.914
0.914
0.914
0.916
0.916
0.916
0.916
0.916
0.916
0.918
0.918
0.918
0.918
0.918
0.918
0.918
0.918
0.918
0.918
0.918
0.918
0.918
0.918
0.918
0.918
0.918
0.918
0.918
0.918
0.916
0.916
0.914
0.914
0.914
0.914
0.914
0.916
0.916
0.916
0.916
0.916
0.916
0.916
0.916
0.916
0.916
0.916
0.916
0.916
0.916
0.914
0.914
0.914
0.914
0.914
0.914
0.914
0.916
0.916
0.916
0.916
0.916
0.916
0.916
0.916
0.916
0.916
0.916
0.916
0.916
0.916
0.916
0.916
0.916
0.92
0.92
0.92
0.92
0.92
0.92
0.92
0.92
0.92
0.92
0.92
0.92
0.92
0.92
0.92
0.92
0.92
0.918
0.918
0.918
0.918
0.918
0.918
0.92
0.92
0.918
0.92
0.92
0.92
0.92
0.92
0.92
0.918
0.918
0.918
0.918
0.92
0.92
0.92
0.92
0.92
0.918
0.918
0.918
0.918
0.918
0.918
0.918
0.918
0.918
0.918
0.918
0.918
0.918
0.918
0.918
0.918
0.918
0.918
0.918
0.918
0.918
0.918
0.918
0.918
0.916
0.916
0.916
0.916
0.916
0.916
0.916
0.916
0.916
0.916
0.916
0.916
0.916
0.916
0.916
0.916
0.916
0.916
0.916
0.916
0.916
0.916
0.914
0.914
0.914
0.914
0.914
0.914
0.914
0.914
0.914
0.914
0.914
0.914
0.91
0.91
0.91
0.91
0.91
0.91
0.91
0.91
0.91
0.912
0.912
0.912
0.912
0.912
0.912
0.912
0.912
0.914
0.914
0.914
0.914
0.914
0.914
0.914
0.914
0.914
0.914
0.914
0.914
0.914
0.914
0.914
0.914
0.916
0.916
0.916
0.916
0.916
0.916
0.916
0.916
0.916
0.916
0.916
0.916
0.916
0.916
0.916
0.914
0.914
0.914
0.914
0.912
0.914
0.914
0.914
0.914
0.914
0.914
0.914
0.914
0.914
0.914
0.914
0.914
0.914
0.914
0.914
0.914
0.914
0.914
0.914
0.914
0.914
0.914
0.914
0.914
0.914
0.914
0.914
0.914
0.914
0.914
0.916
0.916
0.916
0.916
0.916
0.916
0.916
0.916
0.916
0.918
0.916
0.916
0.916
0.916
0.916
0.916
0.916
0.916
0.916
0.916
0.916
0.916
0.916
0.916
0.916
0.916
0.914
0.914
0.914
0.914
0.914
0.914
0.914
0.914
0.914
0.914
0.914
0.914
0.914
0.914
0.914
0.914
0.914
0.916
0.916
0.916
0.916
0.916
0.916
0.916
0.916
0.916
0.916
0.918
0.918
0.92
0.92
0.92
0.92
0.92
0.92
0.92
0.92
0.92
0.92
0.92
0.92
0.92
0.92
0.92
0.918
0.918
0.918
0.918
0.918
0.918
0.918
0.918
0.92
0.922
0.922
0.922
0.922
0.922
0.922
0.922
0.922
0.922
0.922
0.922
0.922
0.922
0.922
0.922
0.922
0.924
0.922
0.922
0.922
0.922
0.922
0.922
0.922
0.922
0.922
0.922
0.922
0.922
0.922
0.922
0.924
0.924
0.924
0.924
0.924
0.924
0.924
0.924
0.924
0.924
0.924
0.924
0.922
0.922
0.922
0.922
0.922
0.922
0.922
0.922
0.922
0.922
0.922
0.922
0.922
0.922
0.922
0.922
0.922
0.922
0.922
0.922
0.922
0.922
0.922
0.922
0.922
0.922
0.922
0.922
0.922
0.922
0.922
0.922
0.922
0.922
0.922
0.922
0.922
0.922
0.922
0.922
0.92
0.92
0.92
0.92
0.92
0.918
0.918
0.918
0.918
0.918
0.918
0.918
0.918
0.918
0.918
0.918
0.918
0.918
0.918
0.918
0.92
0.92
0.92
0.92
0.922
0.922
0.922
0.922
0.922
0.922
0.922
0.922
0.922
0.922
0.922
0.922
0.922
0.922
0.922
0.922
0.922
0.922
0.922
0.922
0.922
0.92
0.92
0.92
0.92
0.92
0.92
0.92
0.92
0.92
0.92
0.92
0.92
0.92
0.92
0.92
0.92
0.92
0.92
0.92
0.92
0.918
0.918
0.918
0.918
0.918
0.918
0.918
0.918
0.918
0.92
0.92
0.92
0.92
0.92
0.92
0.92
0.92
0.92
0.92
0.92
0.92
0.92
0.92
0.92
0.92
0.92
0.92
0.92
0.92
0.92
0.92
0.92
0.92
0.92
0.92
0.92
0.92
0.92
0.92
0.92
0.92
0.92
0.92
0.92
0.922
0.922
0.922
0.922
0.922
0.92
0.92
0.92
0.92
0.92
0.92
0.92
0.92
0.92
0.92
0.92
0.92
0.918
0.918
0.918
0.918
0.918
0.918
0.918
0.918
0.918
0.918
0.918
0.918
0.918
0.918
0.92
0.92
0.92
0.92
0.92
0.92
0.92
0.92
0.92
0.92
0.92
0.92
0.92
0.92
0.92
0.92
0.92
0.92
0.92
0.92
0.92
0.92
0.92
0.92
0.92
0.92
0.92
0.92
0.92
0.92
0.92
0.92
0.92
0.92
0.92
0.918
0.918
0.918
0.918
0.918
0.918
0.92
0.92
0.92
0.92
0.92
0.92
0.92
0.92
0.922
0.922
0.922
0.922
0.92
0.92
0.92
0.92
0.92
0.918
0.918
0.918
0.918
0.918
0.918
0.918
0.918
0.918
0.918
0.918
0.918
0.918
0.918
0.918
0.918
0.918
0.918
0.918
0.918
0.918
0.918
0.92
0.92
0.92
0.92
0.92
0.92
0.92
0.92
0.92
0.92
0.92
0.918
0.918
0.918
0.918
0.918
0.92
0.92
0.92
0.92
0.92
0.92
0.92
0.92
0.922
0.922
0.922
0.922
0.922
0.922
0.922
0.922
0.922
0.922
0.922
0.922
0.92
0.918
0.918
0.918
0.918
0.918
0.918
0.918
0.918
0.918
0.918
0.918
0.916
0.916
0.916
0.916
0.916
0.916
0.916
0.916
0.916
0.916
0.916
0.916
0.916
0.916
0.916
0.918
0.918
0.918
0.918
0.916
0.916
0.916
0.916
0.916
0.916
0.916
0.916
0.916
0.916
0.916
0.916
0.916
0.914
0.916
0.916
0.916
0.916
0.916
0.916
0.916
0.916
0.916
0.916
0.914
0.914
0.914
0.914
0.914
0.916
0.916
0.916
0.916
0.916
0.916
0.916
0.916
0.916
0.916
0.916
0.916
0.916
0.918
0.918
0.918
0.918
0.918
0.918
0.918
0.918
0.918
0.918
0.918
0.92
0.92
0.92
0.92
0.92
0.92
0.918
0.918
0.918
0.918
0.918
0.918
0.918
0.92
0.92
0.92
0.92
0.922
0.922
0.922
0.922
0.922
0.922
0.922
0.922
0.922
0.922
0.922
0.922
0.922
0.922
0.922
0.922
0.922
0.92
0.92
0.92
0.92
0.92
0.92
0.92
0.92
0.92
0.92
0.92
0.92
0.92
0.92
0.92
0.92
0.92
0.92
0.92
0.92
0.92
0.92
0.92
0.92
0.92
0.92
0.92
0.92
0.92
0.92
0.92
0.92
0.92
0.92
0.92
0.92
0.92
0.92
0.92
0.92
0.92
0.92
0.92
0.92
0.92
0.92
0.92
0.92
0.92
0.92
0.92
0.92
0.92
0.92
0.92
0.92
0.92
0.92
0.92
0.918
0.918
0.918
0.918
0.918
0.918
0.918
0.918
0.918
0.918
0.918
0.918
0.918
0.918
0.918
0.918
0.918
0.918
0.918
0.918
0.918
0.918
0.918
0.918
0.918
0.918
0.918
0.918
0.918
0.916
0.916
0.916
0.916
0.916
0.916
0.918
0.918
0.918
0.92
0.92
0.92
0.92
0.92
0.92
0.92
0.92
0.918
0.918
0.918
0.918
0.916
0.916
0.916
0.916
0.916
0.916
0.916
0.916
0.916
0.916
0.914
0.914
0.914
0.914
0.914
0.914
0.914
0.912
0.908
0.908
0.908
0.908
0.908
0.908
0.908
0.908
0.908
0.908
0.906
0.906
0.906
0.906
0.906
0.906
0.906
0.906
0.906
0.906
0.906
0.906
0.906
0.906
0.908
0.908
0.908
0.908
0.908
0.908
0.908
0.908
0.908
0.908
0.908
0.908
0.908
0.908
0.908
0.908
0.91
0.91
0.91
0.91
0.91
0.91
0.91
0.91
0.91
0.91
0.91
0.91
0.91
0.91
0.91
0.91
0.91
0.91
0.91
0.912
0.912
0.912
0.912
0.912
0.912
0.912
0.91
0.91
0.91
0.91
0.91
0.912
0.912
0.912
0.912
0.912
0.912
0.912
0.91
0.91
0.91
0.91
0.91
0.91
0.91
0.91
0.91
0.91
0.91
0.91
0.914
0.914
0.914
0.914
0.914
0.914
0.914
0.914
0.914
0.914
0.914
0.914
0.914
0.914
0.916
0.916
0.916
0.916
0.916
0.916
0.916
0.916
0.916
0.916
0.916
0.916
0.916
0.916
0.916
0.916
0.916
0.916
0.916
0.916
0.916
0.916
0.916
0.916
0.916
0.916
0.916
0.914
0.914
0.914
0.914
0.914
0.914
0.914
0.914
0.914
0.916
0.916
0.916
0.916
0.916
0.916
0.916
0.916
0.918
0.918
0.922
0.922
0.922
0.922
0.922
0.922
0.922
0.922
0.922
0.924
0.924
0.924
0.924
0.924
0.924
0.924
0.924
0.924
0.924
0.924
0.924
0.924
0.926
0.926
0.926
0.924
0.924
0.924
0.924
0.924
0.924
0.924
0.924
0.924
0.924
0.924
0.924
0.924
0.924
0.924
0.924
0.924
0.924
0.924
0.924
0.924
0.924
0.924
0.924
0.924
0.924
0.924
0.924
0.924
0.924
0.924
0.926
0.926
0.926
0.924
0.924
0.924
0.924
0.924
0.924
0.924
0.924
0.924
0.924
0.924
0.924
0.924
0.924
0.924
0.924
0.924
0.924
0.924
0.924
0.924
0.924
0.924
0.924
0.922
0.922
0.922
0.922
0.922
0.922
0.922
0.922
0.922
0.922
0.922
0.922
0.922
0.922
0.92
0.92
0.92
0.92
0.92
0.92
0.92
0.92
0.92
0.92
0.92
0.92
0.92
0.92
0.92
0.92
0.918
0.918
0.918
0.918
0.918
0.918
0.918
0.918
0.918
0.918
0.918
0.918
0.918
0.918
0.918
0.918
0.918
0.918
0.918
0.918
0.918
0.918
0.918
0.918
0.918
0.92
0.92
0.92
0.92
0.92
0.92
0.92
0.92
0.92
0.92
0.922
0.922
0.922
0.92
0.92
0.92
0.92
0.92
0.92
0.92
0.922
0.922
0.922
0.922
0.922
0.922
0.922
0.922
0.922
0.92
0.92
0.92
0.92
0.92
0.92
0.92
0.92
0.92
0.92
0.92
0.92
0.918
0.918
0.918
0.918
0.918
0.918
0.918
0.918
0.918
0.918
0.918
0.918
0.918
0.918
0.918
0.918
0.918
0.918
0.918
0.918
0.918
0.918
0.918
0.918
0.918
0.918
0.918
0.918
0.918
0.918
0.918
0.918
0.918
0.918
0.918
0.918
0.918
0.918
0.918
0.92
0.92
0.92
0.92
0.918
0.918
0.918
0.918
0.918
0.918
0.918
0.918
0.918
0.918
0.918
0.918
0.918
0.92
0.92
0.92
0.918
0.918
0.918
0.918
0.918
0.918
0.918
0.918
0.918
0.918
0.918
0.918
0.918
0.918
0.918
0.918
0.918
0.92
0.92
0.92
0.92
0.92
0.92
0.92
0.92
0.92
0.922
0.922
0.922
0.922
0.922
0.922
0.922
0.922
0.922
0.922
0.922
0.922
0.922
0.922
0.922
0.922
0.922
0.922
0.922
0.922
0.922
0.922
0.922
0.922
0.922
0.922
0.922
0.922
0.922
0.922
0.922
0.922
0.924
0.924
0.924
0.924
0.926
0.926
0.926
0.926
0.928
0.928
0.928
0.928
0.928
0.928
0.928
0.928
0.928
0.928
0.928
0.93
0.93
0.93
0.93
0.93
0.93
0.93
0.93
0.93
0.93
0.93
0.93
0.93
0.93
0.93
0.93
0.93
0.93
0.93
0.93
0.93
0.93
0.93
0.93
0.93
0.93
0.93
0.93
0.93
0.93
0.93
0.93
0.93
0.93
0.93
0.93
0.93
0.93
0.93
0.93
0.93
0.93
0.93
0.93
0.93
0.93
0.93
0.928
0.928
0.928
0.928
0.928
0.928
0.928
0.928
0.928
0.93
0.93
0.93
0.93
0.93
0.93
0.93
0.93
0.93
0.93
0.928
0.928
0.928
0.928
0.928
0.928
0.928
0.928
0.928
0.928
0.928
0.928
0.928
0.928
0.928
0.928
0.928
0.928
0.928
0.928
0.928
0.928
0.928
0.928
0.928
0.928
0.928
0.928
0.928
0.928
0.928
0.928
0.928
0.928
0.928
0.928
0.928
0.928
0.928
0.928
0.926
0.926
0.926
0.924
0.924
0.924
0.924
0.924
0.924
0.926
0.926
0.926
0.926
0.926
0.926
0.926
0.926
0.926
0.926
0.926
0.926
0.926
0.926
0.926
0.926
0.926
0.926
0.926
0.924
0.924
0.924
0.924
0.924
0.924
0.924
0.924
0.924
0.924
0.922
0.922
0.922
0.922
0.922
0.922
0.922
0.922
0.922
0.922
0.922
0.924
0.926
0.926
0.926
0.926
0.926
0.926
0.926
0.926
0.928
0.928
0.928
0.928
0.928
0.928
0.928
0.928
0.928
0.928
0.928
0.928
0.928
0.928
0.928
0.928
0.928
0.928
0.926
0.926
0.926
0.926
0.926
0.926
0.926
0.926
0.926
0.928
0.928
0.928
0.928
0.928
0.928
0.928
0.928
0.93
0.93
0.93
0.93
0.93
0.93
0.93
0.93
0.93
0.93
0.932
0.932
0.932
0.93
0.928
0.928
0.928
0.928
0.928
0.928
0.928
0.928
0.928
0.928
0.928
0.928
0.928
0.928
0.928
0.928
0.928
0.928
0.928
0.926
0.926
0.926
0.926
0.926
0.926
0.926
0.926
0.926
0.926
0.926
0.926
0.926
0.926
0.926
0.926
0.926
0.926
0.926
0.926
0.928
0.928
0.928
0.928
0.928
0.928
0.928
0.928
0.928
0.928
0.928
0.928
0.926
0.928
0.928
0.928
0.928
0.928
0.926
0.926
0.926
0.926
0.924
0.924
0.924
0.924
0.924
0.924
0.924
0.924
0.924
0.926
0.926
0.926
0.926
0.926
0.924
0.924
0.924
0.924
0.924
0.924
0.924
0.924
0.924
0.924
0.924
0.924
0.924
0.924
0.924
0.922
0.922
0.922
0.922
0.922
0.922
0.922
0.922
0.92
0.92
0.92
0.92
0.92
0.92
0.92
0.92
0.92
0.92
0.92
0.92
0.92
0.92
0.92
0.92
0.92
0.92
0.92
0.92
0.92
0.92
0.92
0.92
0.92
0.92
0.92
0.92
0.922
0.922
0.922
0.922
0.922
0.922
0.922
0.922
0.922
0.922
0.922
0.922
0.922
0.922
0.922
0.922
0.922
0.922
0.922
0.922
0.922
0.922
0.922
0.922
0.922
0.922
0.922
0.922
0.922
0.922
0.922
0.922
0.922
0.922
0.922
0.922
0.922
0.922
0.922
0.922
0.922
0.922
0.922
0.922
0.922
0.922
0.922
0.92
0.92
0.92
0.92
0.92
0.92
0.92
0.92
0.922
0.922
0.922
0.922
0.922
0.922
0.922
0.922
0.922
0.924
0.924
0.924
0.924
0.924
0.924
0.924
0.924
0.924
0.924
0.924
0.924
0.924
0.924
0.924
0.924
0.924
0.924
0.928
0.928
0.928
0.928
0.928
0.928
0.928
0.928
0.928
0.928
0.928
0.928
0.928
0.928
0.928
0.93
0.93
0.93
0.93
0.93
0.93
0.93
0.93
0.93
0.93
0.93
0.93
0.93
0.93
0.928
0.928
0.928
0.928
0.928
0.928
0.928
0.928
0.928
0.928
0.928
0.926
0.926
0.926
0.926
0.926
0.926
0.926
0.926
0.926
0.928
0.928
0.928
0.928
0.928
0.928
0.928
0.928
0.928
0.928
0.928
0.928
0.928
0.928
0.928
0.928
0.928
0.928
0.928
0.928
0.928
0.928
0.928
0.928
0.928
0.928
0.928
0.93
0.93
0.93
0.93
0.93
0.93
0.93
0.93
0.93
0.93
0.93
0.93
0.93
0.93
0.93
0.93
0.93
0.928
0.928
0.93
0.93
0.93
0.93
0.93
0.93
0.93
0.932
0.932
0.932
0.932
0.932
0.932
0.932
0.932
0.932
0.932
0.932
0.932
0.932
0.932
0.932
0.932
0.932
0.932
0.932
0.932
0.932
0.932
0.932
0.932
0.932
0.932
0.932
0.932
0.932
0.932
0.932
0.932
0.932
0.932
0.932
0.932
0.932
0.932
0.932
0.93
0.93
0.93
0.93
0.93
0.93
0.93
0.93
0.93
0.93
0.93
0.93
0.93
0.93
0.93
0.93
0.93
0.93
0.93
0.93
0.93
0.93
0.93
0.932
0.932
0.932
0.932
0.932
0.932
0.932
0.932
0.932
0.932
0.932
0.932
0.932
0.932
0.932
0.932
0.932
0.932
0.932
0.932
0.932
0.932
0.932
0.93
0.93
0.93
0.93
0.93
0.93
0.93
0.93
0.932
0.932
0.932
0.932
0.934
0.934
0.934
0.934
0.934
0.934
0.934
0.934
0.934
0.934
0.934
0.934
0.934
0.934
0.934
0.934
0.934
0.934
0.934
0.934
0.934
0.934
0.934
0.934
0.934
0.934
0.934
0.934
0.934
0.934
0.934
0.934
0.934
0.934
0.934
0.934
0.934
0.934
0.934
0.932
0.932
0.932
0.932
0.932
0.932
0.932
0.932
0.932
0.932
0.932
0.932
0.932
0.932
0.932
0.932
0.932
0.932
0.932
0.932
0.932
0.932
0.932
0.932
0.932
0.932
0.932
0.932
0.932
0.932
0.932
0.932
0.932
0.932
0.932
0.93
0.93
0.93
0.93
0.93
0.93
0.93
0.93
0.93
0.93
0.93
0.93
0.932
0.932
0.932
0.932
0.932
0.932
0.932
0.932
0.932
0.932
0.93
0.93
0.93
0.93
0.93
0.93
0.93
0.93
0.93
0.93
0.93
0.93
0.93
0.93
0.932
0.932
0.932
0.932
0.932
0.932
0.932
0.932
0.932
0.932
0.932
0.932
0.932
0.932
0.932
0.932
0.932
0.932
0.932
0.932
0.932
0.932
0.932
0.932
0.932
0.932
0.932
0.932
0.932
0.932
0.932
0.932
0.932
0.932
0.932
0.932
0.932
0.932
0.932
0.932
0.932
0.932
0.932
0.934
0.934
0.934
0.934
0.934
0.934
0.934
0.934
0.934
0.934
0.936
0.934
0.934
0.934
0.934
0.934
0.934
0.936
0.936
0.936
0.934
0.934
0.934
0.934
0.934
0.934
0.932
0.932
0.932
0.932
0.932
0.932
0.932
0.932
0.932
0.932
0.932
0.932
0.932
0.932
0.932
0.932
0.932
0.932
0.932
0.93
0.93
0.93
0.93
0.93
0.93
0.93
0.93
0.93
0.93
0.93
0.93
0.93
0.93
0.93
0.93
0.93
0.93
0.93
0.93
0.93
0.93
0.932
0.932
0.932
0.932
0.932
0.932
0.932
0.932
0.932
0.932
0.932
0.932
0.932
0.932
0.932
0.932
0.932
0.93
0.93
0.928
0.928
0.93
0.93
0.93
0.932
0.932
0.932
0.932
0.932
0.932
0.932
0.932
0.932
0.932
0.934
0.934
0.932
0.932
0.932
0.932
0.932
0.932
0.932
0.932
0.932
0.932
0.932
0.932
0.932
0.932
0.932
0.932
0.932
0.932
0.932
0.932
0.932
0.932
0.932
0.932
0.932
0.932
0.932
0.932
0.932
0.93
0.93
0.93
0.932
0.932
0.932
0.932
0.93
0.93
0.93
0.93
0.93
0.93
0.93
0.93
0.93
0.93
0.93
0.93
0.93
0.93
0.93
0.932
0.932
0.932
0.932
0.932
0.932
0.932
0.932
0.932
0.932
0.932
0.932
0.932
0.932
0.932
0.932
0.932
0.932
0.932
0.932
0.932
0.932
0.932
0.932
0.932
0.932
0.932
0.932
0.932
0.932
0.932
0.932
0.932
0.932
0.932
0.932
0.932
0.932
0.932
0.932
0.932
0.932
0.932
0.932
0.932
0.932
0.932
0.932
0.932
0.932
0.932
0.932
0.932
0.932
0.932
0.932
0.932
0.932
0.932
0.932
0.932
0.932
0.932
0.932
0.932
0.932
0.932
0.932
0.932
0.932
0.932
0.932
0.932
0.932
0.932
0.932
0.932
0.932
0.932
0.932
0.932
0.932
0.932
0.932
0.932
0.932
0.932
0.932
0.932
0.932
0.932
0.932
0.932
0.932
0.932
0.932
0.932
0.932
0.932
0.932
0.932
0.932
0.932
0.932
0.932
0.932
0.932
0.932
0.932
0.932
0.932
0.932
0.932
0.932
0.932
0.932
0.932
0.932
0.932
0.934
0.934
0.934
0.934
0.936
0.936
0.936
0.936
0.936
0.936
0.936
0.936
0.936
0.936
0.936
0.936
0.938
0.938
0.938
0.938
0.938
0.938
0.938
0.938
0.938
0.938
0.938
0.938
0.938
0.938
0.938
0.938
0.938
0.938
0.938
0.938
0.938
0.938
0.938
0.938
0.938
0.938
0.938
0.938
0.938
0.938
0.938
0.938
0.938
0.938
0.938
0.938
0.936
0.936
0.936
0.936
0.936
0.936
0.936
0.936
0.936
0.936
0.936
0.936
0.936
0.934
0.934
0.934
0.934
0.934
0.934
0.934
0.934
0.934
0.934
0.934
0.934
0.934
0.934
0.934
0.934
0.934
0.934
0.934
0.934
0.934
0.934
0.934
0.934
0.934
0.934
0.934
0.934
0.934
0.934
0.934
0.934
0.936
0.936
0.936
0.936
0.936
0.936
0.936
0.936
0.936
0.936
0.936
0.936
0.936
0.936
0.936
0.936
0.936
0.936
0.936
0.936
0.936
0.936
0.936
0.936
0.936
0.936
0.936
0.936
0.936
0.936
0.936
0.936
0.936
0.936
0.936
0.936
0.936
0.936
0.936
0.936
0.936
0.936
0.936
0.936
0.936
0.936
0.936
0.936
0.936
0.936
0.936
0.936
0.936
0.936
0.936
0.936
0.936
0.936
0.936
0.936
0.936
0.936
0.936
0.936
0.936
0.936
0.936
0.936
0.936
0.936
0.936
0.936
0.936
0.936
0.934
0.936
0.936
0.936
0.936
0.934
0.934
0.936
0.936
0.936
0.936
0.936
0.936
0.936
0.936
0.936
0.936
0.936
0.936
0.936
0.936
0.936
0.936
0.936
0.936
0.936
0.936
0.936
0.936
0.936
0.936
0.936
0.936
0.936
0.936
0.936
0.934
0.934
0.934
0.934
0.934
0.932
0.932
0.932
0.932
0.932
0.932
0.932
0.932
0.932
0.932
0.932
0.932
0.932
0.932
0.932
0.932
0.932
0.932
0.932
0.934
0.934
0.934
0.934
0.934
0.934
0.934
0.934
0.934
0.934
0.934
0.934
0.934
0.934
0.934
0.934
0.934
0.936
0.936
0.936
0.936
0.938
0.938
0.938
0.938
0.938
0.938
0.938
0.938
0.938
0.938
0.938
0.938
0.938
0.938
0.938
0.938
0.936
0.936
0.936
0.936
0.936
0.936
0.936
0.936
0.936
0.936
0.936
0.936
0.936
0.936
0.936
0.936
0.936
0.936
0.936
0.936
0.936
0.936
0.936
0.934
0.934
0.934
0.934
0.934
0.934
0.934
0.934
0.932
0.932
0.932
0.932
0.932
0.932
0.932
0.932
0.932
0.932
0.932
0.932
0.932
0.932
0.932
0.932
0.932
0.932
0.932
0.932
0.932
0.932
0.932
0.932
0.932
0.932
0.932
0.932
0.932
0.932
0.932
0.932
0.932
0.932
0.932
0.932
0.932
0.932
0.932
0.934
0.934
0.934
0.934
0.934
0.934
0.934
0.934
0.934
0.934
0.934
0.934
0.934
0.934
0.934
0.934
0.934
0.934
0.934
0.934
0.934
0.934
0.934
0.934
0.934
0.934
0.934
0.934
0.934
0.934
0.934
0.934
0.934
0.934
0.934
0.934
0.934
0.934
0.934
0.934
0.934
0.934
0.934
0.934
0.934
0.934
0.934
0.934
0.934
0.934
0.932
0.932
0.932
0.932
0.932
0.932
0.932
0.932
0.932
0.932
0.932
0.932
0.932
0.932
0.932
0.93
0.93
0.93
0.93
0.93
0.93
0.93
0.93
0.93
0.93
0.93
0.93
0.93
0.93
0.93
0.93
0.93
0.93
0.93
0.93
0.93
0.93
0.93
0.93
0.93
0.93
0.93
0.93
0.93
0.932
0.932
0.932
0.932
0.932
0.932
0.932
0.932
0.932
0.932
0.932
0.932
0.932
0.932
0.932
0.93
0.93
0.93
0.93
0.93
0.93
0.93
0.93
0.93
0.93
0.93
0.93
0.93
0.93
0.93
0.93
0.93
0.93
0.93
0.93
0.932
0.932
0.932
0.932
0.932
0.932
0.932
0.932
0.932
0.932
0.932
0.932
0.932
0.932
0.932
0.932
0.932
0.932
0.932
0.932
0.93
0.93
0.93
0.93
0.93
0.93
0.93
0.93
0.93
0.93
0.93
0.93
0.93
0.93
0.93
0.93
0.93
0.93
0.93
0.93
0.93
0.93
0.93
0.93
0.93
0.93
0.93
0.93
0.93
0.932
0.932
0.932
0.932
0.932
0.932
0.932
0.932
0.932
0.932
0.932
0.932
0.934
0.934
0.934
0.934
0.934
0.934
0.934
0.934
0.934
0.934
0.934
0.934
0.934
0.934
0.934
0.936
0.936
0.936
0.936
0.936
0.936
0.936
0.936
0.936
0.936
0.936
0.936
0.936
0.936
0.936
0.936
0.936
0.936
0.936
0.936
0.936
0.936
0.936
0.936
0.934
0.934
0.934
0.932
0.932
0.932
0.932
0.934
0.934
0.934
0.934
0.934
0.934
0.934
0.934
0.934
0.934
0.934
0.934
0.934
0.934
0.934
0.934
0.934
0.934
0.934
0.934
0.934
0.936
0.936
0.936
0.938
0.938
0.938
0.938
0.938
0.938
0.938
0.938
0.938
0.938
0.938
0.938
0.938
0.938
0.938
0.938
0.938
0.938
0.938
0.938
0.938
0.938
0.938
0.938
0.938
0.938
0.938
0.938
0.938
0.938
0.938
0.938
0.938
0.938
0.938
0.938
0.938
0.938
0.938
0.938
0.938
0.938
0.938
0.938
0.938
0.938
0.938
0.938
0.938
0.938
0.938
0.938
0.938
0.938
0.938
0.938
0.936
0.936
0.936
0.936
0.936
0.936
0.936
0.936
0.936
0.936
0.936
0.936
0.936
0.936
0.936
0.936
0.936
0.936
0.938
0.938
0.938
0.938
0.938
0.938
0.938
0.938
0.938
0.938
0.938
0.938
0.938
0.938
0.938
0.938
0.938
0.938
0.938
0.938
0.938
0.938
0.938
0.938
0.938
0.938
0.938
0.938
0.938
0.938
0.938
0.938
0.938
0.938
0.936
0.936
0.936
0.936
0.936
0.936
0.938
0.938
0.94
0.94
0.94
0.94
0.94
0.94
0.94
0.94
0.94
0.94
0.94
0.94
0.94
0.94
0.94
0.94
0.94
0.94
0.94
0.94
0.94
0.94
0.94
0.94
0.94
0.94
0.94
0.94
0.94
0.94
0.94
0.94
0.94
0.94
0.94
0.94
0.94
0.94
0.94
0.94
0.94
0.94
0.94
0.94
0.94
0.94
0.94
0.94
0.94
0.94
0.938
0.938
0.938
0.936
0.936
0.936
0.934
0.934
0.934
0.934
0.934
0.934
0.934
0.934
0.934
0.934
0.934
0.934
0.934
0.934
0.934
0.934
0.934
0.934
0.936
0.938
0.94
0.94
0.94
0.94
0.94
0.94
0.94
0.94
0.94
0.94
0.94
0.94
0.938
0.938
0.938
0.938
0.938
0.938
0.94
0.94
0.94
0.94
0.94
0.94
0.94
0.94
0.94
0.94
0.94
0.94
0.94
0.94
0.94
0.94
0.94
0.94
0.94
0.94
0.94
0.94
0.94
0.94
0.94
0.94
0.94
0.938
0.938
0.938
0.938
0.938
0.938
0.938
0.938
0.938
0.938
0.938
0.938
0.938
0.938
0.938
0.938
0.938
0.938
0.938
0.938
0.938
0.938
0.938
0.938
0.938
0.938
0.938
0.938
0.938
0.938
0.938
0.938
0.938
0.938
0.938
0.938
0.938
0.938
0.938
0.938
0.938
0.938
0.938
0.938
0.938
0.938
0.938
0.938
0.938
0.938
0.938
0.938
0.938
0.938
0.938
0.938
0.938
0.938
0.938
0.938
0.938
0.938
0.938
0.938
0.938
0.938
0.938
0.938
0.938
0.938
0.938
0.938
0.938
0.938
0.938
0.938
0.938
0.94
0.94
0.94
0.938
0.94
0.94
0.94
0.94
0.94
0.94
0.94
0.94
0.94
0.94
0.938
0.938
0.938
0.938
0.938
0.938
0.94
0.94
0.94
0.94
0.94
0.942
0.942
0.942
0.942
0.942
0.942
0.942
0.942
0.942
0.942
0.942
0.942
0.942
0.942
0.942
0.942
0.94
0.94
0.94
0.94
0.94
0.94
0.94
0.94
0.94
0.94
0.94
0.94
0.94
0.94
0.94
0.94
0.94
0.94
0.94
0.94
0.94
0.94
0.94
0.94
0.94
0.94
0.94
0.94
0.94
0.942
0.942
0.942
0.942
0.94
0.94
0.94
0.94
0.94
0.94
0.94
0.94
0.94
0.94
0.94
0.94
0.94
0.94
0.94
0.94
0.94
0.94
0.94
0.94
0.94
0.94
0.94
0.94
0.94
0.94
0.94
0.94
0.94
0.94
0.94
0.94
0.94
0.94
0.94
0.94
0.94
0.94
0.94
0.94
0.94
0.94
0.94
0.94
0.94
0.94
0.94
0.94
0.94
0.94
0.94
0.94
0.94
0.94
0.94
0.94
0.94
0.94
0.94
0.94
0.94
0.94
0.94
0.94
0.94
0.94
0.94
0.94
0.94
0.94
0.94
0.94
0.94
0.94
0.94
0.94
0.94
0.94
0.94
0.94
0.94
0.94
0.94
0.94
0.94
0.94
0.94
0.94
0.94
0.94
0.94
0.94
0.94
0.94
0.94
0.94
0.94
0.94
0.94
0.94
0.94
0.94
0.942
0.942
0.942
0.942
0.942
0.942
0.942
0.942
0.942
0.942
0.942
0.942
0.942
0.942
0.942
0.942
0.942
0.942
0.942
0.942
0.942
0.942
0.942
0.942
0.942
0.944
0.944
0.944
0.944
0.944
0.944
0.944
0.944
0.944
0.944
0.944
0.944
0.944
0.944
0.944
0.944
0.944
0.94
0.94
0.942
0.942
0.942
0.942
0.942
0.942
0.942
0.942
0.942
0.94
0.94
0.94
0.94
0.938
0.938
0.938
0.938
0.938
0.938
0.938
0.938
0.938
0.938
0.938
0.938
0.938
0.938
0.94
0.94
0.94
0.94
0.94
0.94
0.94
0.94
0.94
0.94
0.94
0.94
0.94
0.94
0.94
0.94
0.94
0.94
0.94
0.94
0.94
0.94
0.94
0.94
0.94
0.94
0.94
0.94
0.94
0.94
0.94
0.94
0.94
0.94
0.94
0.94
0.94
0.94
0.94
0.94
0.94
0.94
0.942
0.942
0.942
0.942
0.942
0.942
0.942
0.942
0.942
0.942
0.942
0.942
0.942
0.942
0.942
0.942
0.942
0.942
0.942
0.942
0.942
0.942
0.942
0.942
0.942
0.942
0.942
0.942
0.942
0.942
0.942
0.942
0.942
0.942
0.942
0.94
0.94
0.94
0.94
0.94
0.94
0.94
0.94
0.94
0.94
0.94
0.94
0.94
0.94
0.94
0.94
0.94
0.94
0.94
0.94
0.94
0.94
0.94
0.94
0.94
0.94
0.94
0.94
0.94
0.94
0.94
0.94
0.94
0.94
0.94
0.94
0.94
0.94
0.94
0.94
0.94
0.94
0.94
0.94
0.94
0.94
0.94
0.94
0.94
0.94
0.94
0.94
0.94
0.942
0.942
0.942
0.942
0.942
0.942
0.942
0.942
0.942
0.94
0.94
0.94
0.94
0.938
0.938
0.938
0.938
0.938
0.938
0.938
0.938
0.938
0.938
0.938
0.94
0.94
0.94
0.94
0.94
0.94
0.94
0.94
0.94
0.94
0.94
0.94
0.94
0.94
0.94
0.938
0.938
0.938
0.938
0.94
0.94
0.94
0.94
0.94
0.94
0.94
0.94
0.94
0.94
0.94
0.94
0.94
0.94
0.94
0.94
0.94
0.94
0.94
0.94
0.94
0.94
0.94
0.94
0.94
0.94
0.94
0.94
0.942
0.942
0.942
0.942
0.942
0.942
0.942
0.942
0.942
0.942
0.942
0.942
0.942
0.942
0.942
0.942
0.942
0.942
0.942
0.942
0.942
0.942
0.942
0.942
0.942
0.942
0.942
0.942
0.942
0.942
0.942
0.942
0.942
0.942
0.942
0.944
0.944
0.944
0.944
0.944
0.944
0.944
0.944
0.944
0.944
0.944
0.944
0.944
0.944
0.944
0.944
0.944
0.944
0.944
0.942
0.942
0.942
0.942
0.942
0.942
0.942
0.942
0.942
0.942
0.942
0.942
0.942
0.94
0.94
0.94
0.94
0.94
0.94
0.94
0.94
0.94
0.94
0.94
0.94
0.94
0.94
0.94
0.94
0.94
0.94
0.94
0.94
0.94
0.94
0.94
0.94
0.94
0.94
0.94
0.94
0.94
0.94
0.94
0.94
0.94
0.94
0.94
0.94
0.94
0.94
0.94
0.94
0.94
0.94
0.94
0.94
0.94
0.94
0.94
0.94
0.94
0.94
0.94
0.94
0.94
0.94
0.94
0.94
0.94
0.94
0.94
0.94
0.94
0.94
0.94
0.94
0.94
0.94
0.94
0.94
0.938
0.938
0.938
0.938
0.938
0.938
0.938
0.938
0.938
0.938
0.938
0.938
0.938
0.94
0.94
0.94
0.94
0.94
0.94
0.94
0.94
0.94
0.94
0.94
0.94
0.94
0.94
0.94
0.94
0.94
0.94
0.938
0.938
0.938
0.938
0.938
0.938
0.938
0.938
0.94
0.94
0.94
0.94
0.94
0.94
0.94
0.94
0.94
0.94
0.94
0.94
0.94
0.94
0.94
0.94
0.942
0.942
0.94
0.94
0.94
0.94
0.94
0.94
0.94
0.94
0.94
0.94
0.94
0.94
0.94
0.94
0.94
0.94
0.94
0.94
0.94
0.94
0.94
0.94
0.94
0.94
0.94
0.94
0.94
0.94
0.94
0.94
0.94
0.94
0.94
0.94
0.94
0.94
0.94
0.94
0.94
0.94
0.94
0.94
0.94
0.94
0.94
0.94
0.94
0.94
0.94
0.94
0.94
0.94
0.94
0.94
0.94
0.94
0.94
0.94
0.94
0.94
0.94
0.94
0.94
0.94
0.94
0.94
0.94
0.94
0.94
0.94
0.94
0.94
0.94
0.94
0.94
0.94
0.94
0.94
0.94
0.94
0.94
0.938
0.94
0.94
0.94
0.94
0.94
0.94
0.94
0.94
0.94
0.94
0.94
0.94
0.94
0.94
0.94
0.94
0.938
0.938
0.938
0.938
0.938
0.938
0.938
0.938
0.938
0.938
0.938
0.938
0.938
0.94
0.94
0.94
0.94
0.94
0.94
0.94
0.94
0.938
0.938
0.938
0.938
0.938
0.938
0.938
0.938
0.938
0.938
0.938
0.938
0.938
0.938
0.938
0.938
0.938
0.938
0.938
0.938
0.938
0.938
0.938
0.938
0.938
0.936
0.936
0.936
0.936
0.936
0.936
0.936
0.934
0.934
0.934
0.934
0.934
0.934
0.934
0.934
0.934
0.934
0.934
0.936
0.936
0.936
0.936
0.938
0.938
0.938
0.938
0.938
0.938
0.938
0.938
0.938
0.938
0.938
0.938
0.938
0.938
0.938
0.938
0.938
0.938
0.938
0.938
0.936
0.936
0.936
0.936
0.936
0.936
0.936
0.936
0.936
0.936
0.936
0.936
0.936
0.936
0.936
0.936
0.936
0.936
0.936
0.936
0.936
0.936
0.936
0.936
0.936
0.936
0.936
0.936
0.936
0.936
0.936
0.936
0.936
0.936
0.936
0.936
0.936
0.936
0.936
0.936
0.936
0.936
0.936
0.936
0.934
0.934
0.934
0.934
0.934
0.934
0.934
0.934
0.934
0.934
0.934
0.934
0.934
0.934
0.934
0.934
0.936
0.938
0.938
0.938
0.938
0.938
0.938
0.938
0.938
0.938
0.938
0.938
0.938
0.936
0.936
0.936
0.936
0.936
0.936
0.936
0.936
0.936
0.936
0.936
0.936
0.936
0.936
0.936
0.936
0.936
0.936
0.936
0.936
0.936
0.936
0.936
0.936
0.938
0.938
0.938
0.938
0.938
0.938
0.938
0.938
0.936
0.936
0.936
0.936
0.936
0.936
0.936
0.936
0.936
0.936
0.936
0.936
0.936
0.936
0.936
0.936
0.936
0.936
0.936
0.936
0.936
0.936
0.936
0.936
0.936
0.936
0.936
0.936
0.936
0.936
0.936
0.936
0.936
0.936
0.936
0.936
0.936
0.936
0.936
0.936
0.936
0.936
0.936
0.936
0.936
0.936
0.936
0.938
0.938
0.938
0.938
0.938
0.938
0.938
0.938
0.938
0.938
0.938
0.94
0.94
0.94
0.94
0.94
0.94
0.94
0.94
0.94
0.94
0.94
0.94
0.942
0.942
0.942
0.942
0.94
0.94
0.94
0.94
0.94
0.94
0.94
0.94
0.94
0.94
0.94
0.94
0.94
0.938
0.938
0.938
0.938
0.938
0.938
0.938
0.938
0.938
0.94
0.94
0.94
0.94
0.94
0.94
0.94
0.942
0.942
0.942
0.942
0.942
0.942
0.942
0.944
0.944
0.944
0.944
0.944
0.944
0.944
0.944
0.944
0.944
0.944
0.944
0.944
0.944
0.944
0.944
0.944
0.944
0.944
0.944
0.944
0.944
0.944
0.944
0.944
0.944
0.944
0.944
0.946
0.946
0.946
0.946
0.946
0.946
0.946
0.946
0.946
0.946
0.946
0.946
0.946
0.946
0.946
0.944
0.944
0.944
0.944
0.944
0.944
0.944
0.944
0.944
0.944
0.944
0.944
0.944
0.942
0.942
0.942
0.942
0.942
0.942
0.942
0.942
0.942
0.942
0.942
0.942
0.942
0.942
0.942
0.942
0.942
0.944
0.944
0.944
0.944
0.944
0.944
0.944
0.944
0.944
0.944
0.944
0.944
0.944
0.944
0.944
0.944
0.944
0.944
0.942
0.942
0.942
0.942
0.942
0.942
0.94
0.94
0.94
0.94
0.938
0.938
0.938
0.938
0.938
0.938
0.938
0.938
0.936
0.936
0.936
0.936
0.936
0.936
0.936
0.936
0.936
0.936
0.936
0.936
0.936
0.936
0.938
0.938
0.938
0.938
0.938
0.938
0.938
0.938
0.938
0.938
0.938
0.938
0.938
0.938
0.938
0.938
0.938
0.938
0.938
0.938
0.938
0.938
0.938
0.938
0.938
0.938
0.938
0.938
0.938
0.938
0.938
0.938
0.938
0.938
0.938
0.938
0.938
0.938
0.938
0.938
0.938
0.938
0.938
0.938
0.938
0.938
0.938
0.938
0.938
0.938
0.938
0.938
0.938
0.938
0.938
0.938
0.938
0.938
0.938
0.938
0.938
0.938
0.938
0.938
0.938
0.938
0.938
0.938
0.938
0.938
0.938
0.938
0.94
0.94
0.94
0.94
0.94
0.94
0.94
0.94
0.94
0.94
0.94
0.94
0.94
0.94
0.94
0.94
0.94
0.94
0.94
0.94
0.94
0.94
0.94
0.94
0.94
0.94
0.94
0.94
0.94
0.94
0.94
0.94
0.94
0.94
0.942
0.942
0.942
0.942
0.942
0.942
0.942
0.942
0.942
0.942
0.942
0.942
0.94
0.94
0.94
0.94
0.94
0.94
0.94
0.94
0.942
0.942
0.942
0.942
0.942
0.94
0.94
0.94
0.94
0.94
0.94
0.94
0.94
0.94
0.94
0.94
0.94
0.94
0.942
0.942
0.942
0.942
0.942
0.942
0.942
0.942
0.942
0.942
0.942
0.942
0.942
0.942
0.942
0.942
0.942
0.942
0.942
0.942
0.942
0.942
0.942
0.942
0.942
0.942
0.942
0.942
0.942
0.942
0.942
0.942
0.942
0.942
0.942
0.942
0.942
0.942
0.942
0.942
0.942
0.942
0.942
0.942
0.942
0.942
0.942
0.942
0.942
0.942
0.942
0.942
0.942
0.942
0.94
0.94
0.94
0.94
0.94
0.94
0.94
0.94
0.94
0.942
0.942
0.942
0.942
0.942
0.942
0.94
0.94
0.94
0.94
0.94
0.94
0.942
0.942
0.942
0.942
0.942
0.942
0.94
0.94
0.94
0.94
0.94
0.94
0.94
0.94
0.94
0.938
0.938
0.938
0.938
0.938
0.938
0.938
0.94
0.94
0.94
0.94
0.94
0.94
0.94
0.938
0.938
0.938
0.938
0.938
0.938
0.938
0.938
0.938
0.938
0.938
0.938
0.936
0.936
0.936
0.936
0.936
0.936
0.936
0.936
0.936
0.936
0.936
0.938
0.938
0.938
0.938
0.938
0.938
0.938
0.938
0.938
0.938
0.938
0.938
0.938
0.938
0.938
0.938
0.938
0.938
0.938
0.938
0.938
0.938
0.938
0.938
0.938
0.938
0.938
0.938
0.938
0.938
0.938
0.938
0.938
0.938
0.938
0.938
0.936
0.936
0.936
0.936
0.934
0.934
0.934
0.934
0.934
0.934
0.934
0.934
0.934
0.934
0.934
0.934
0.934
0.934
0.936
0.936
0.936
0.936
0.936
0.936
0.936
0.936
0.936
0.936
0.936
0.936
0.936
0.936
0.936
0.936
0.936
0.936
0.936
0.938
0.938
0.938
0.938
0.938
0.938
0.938
0.938
0.938
0.938
0.938
0.936
0.936
0.936
0.936
0.936
0.936
0.936
0.936
0.938
0.938
0.938
0.938
0.938
0.938
0.938
0.938
0.938
0.938
0.938
0.94
0.94
0.94
0.94
0.94
0.94
0.94
0.94
0.94
0.94
0.94
0.94
0.94
0.94
0.94
0.94
0.94
0.94
0.94
0.94
0.94
0.94
0.942
0.942
0.942
0.942
0.942
0.94
0.94
0.94
0.94
0.94
0.94
0.94
0.94
0.94
0.94
0.94
0.94
0.94
0.94
0.94
0.938
0.938
0.938
0.938
0.938
0.938
0.938
0.938
0.94
0.94
0.94
0.94
0.942
0.942
0.942
0.942
0.942
0.942
0.942
0.942
0.942
0.942
0.942
0.942
0.942
0.942
0.942
0.942
0.942
0.942
0.942
0.94
0.94
0.94
0.94
0.94
0.94
0.94
0.94
0.94
0.94
0.94
0.94
0.94
0.94
0.94
0.94
0.94
0.94
0.94
0.94
0.94
0.94
0.94
0.94
0.94
0.94
0.94
0.94
0.94
0.94
0.94
0.94
0.94
0.94
0.94
0.94
0.94
0.94
0.94
0.94
0.94
0.94
0.94
0.94
0.94
0.94
0.94
0.94
0.94
0.94
0.94
0.94
0.94
0.94
0.94
0.94
0.942
0.942
0.944
0.946
0.946
0.946
0.946
0.946
0.946
0.946
0.944
0.944
0.944
0.944
0.944
0.944
0.944
0.944
0.944
0.944
0.944
0.944
0.944
0.944
0.944
0.944
0.944
0.944
0.942
0.942
0.942
0.942
0.942
0.942
0.942
0.942
0.942
0.942
0.942
0.942
0.942
0.942
0.942
0.942
0.942
0.942
0.942
0.942
0.944
0.946
0.946
0.946
0.946
0.946
0.946
0.946
0.946
0.946
0.946
0.946
0.946
0.946
0.946
0.946
0.946
0.946
0.946
0.946
0.946
0.946
0.946
0.946
0.946
0.946
0.946
0.946
0.946
0.946
0.946
0.946
0.946
0.946
0.946
0.946
0.946
0.946
0.946
0.946
0.946
0.946
0.946
0.946
0.946
0.946
0.946
0.946
0.946
0.946
0.946
0.946
0.946
0.946
0.948
0.948
0.948
0.948
0.948
0.948
0.948
0.948
0.948
0.948
0.948
0.948
0.948
0.948
0.948
0.948
0.948
0.948
0.948
0.948
0.948
0.948
0.948
0.948
0.948
0.948
0.948
0.948
0.948
0.948
0.948
0.948
0.948
0.948
0.948
0.948
0.948
0.948
0.948
0.948
0.948
0.948
0.946
0.946
0.946
0.944
0.944
0.944
0.944
0.944
0.944
0.944
0.944
0.944
0.944
0.944
0.944
0.944
0.944
0.944
0.946
0.946
0.946
0.946
0.946
0.946
0.946
0.946
0.946
0.946
0.946
0.946
0.946
0.946
0.946
0.946
0.946
0.946
0.946
0.946
0.946
0.946
0.946
0.946
0.946
0.946
0.946
0.946
0.948
0.948
0.948
0.948
0.948
0.948
0.948
0.948
0.948
0.948
0.948
0.948
0.948
0.948
0.948
0.948
0.948
0.948
0.948
0.948
0.948
0.948
0.948
0.948
0.948
0.948
0.948
0.948
0.948
0.948
0.948
0.948
0.948
0.948
0.948
0.948
0.948
0.948
0.948
0.948
0.948
0.948
0.948
0.948
0.948
0.948
0.948
0.948
0.948
0.948
0.948
0.948
0.948
0.948
0.948
0.95
